[{"id":1,"nombre":"Wine - White, Mosel Gold","precio":"$5.37","origen":"Colombia"},
{"id":2,"nombre":"Pastry - Banana Tea Loaf","precio":"$7.37","origen":"Peru"},
{"id":3,"nombre":"Pie Filling - Apple","precio":"$8.35","origen":"Portugal"},
{"id":4,"nombre":"Longos - Chicken Cordon Bleu","precio":"$8.10","origen":"Peru"},
{"id":5,"nombre":"Club Soda - Schweppes, 355 Ml","precio":"$0.29","origen":"Mexico"},
{"id":6,"nombre":"Lettuce - Lambs Mash","precio":"$4.62","origen":"Portugal"},
{"id":7,"nombre":"Club Soda - Schweppes, 355 Ml","precio":"$0.78","origen":"Portugal"},
{"id":8,"nombre":"Curry Powder Madras","precio":"$4.78","origen":"Portugal"},
{"id":9,"nombre":"Lamb - Sausage Casings","precio":"$9.64","origen":"Mexico"},
{"id":10,"nombre":"The Pop Shoppe - Root Beer","precio":"$4.79","origen":"Argentina"},
{"id":11,"nombre":"Curry Paste - Madras","precio":"$4.78","origen":"Colombia"},
{"id":12,"nombre":"Bread - Raisin Walnut Pull","precio":"$7.06","origen":"Argentina"},
{"id":13,"nombre":"Flower - Leather Leaf Fern","precio":"$0.86","origen":"Argentina"},
{"id":14,"nombre":"Chef Hat 20cm","precio":"$7.90","origen":"Peru"},
{"id":15,"nombre":"Tabasco Sauce, 2 Oz","precio":"$6.16","origen":"Colombia"},
{"id":16,"nombre":"Beans - Soya Bean","precio":"$0.59","origen":"Mexico"},
{"id":17,"nombre":"Tart - Raisin And Pecan","precio":"$0.57","origen":"Portugal"},
{"id":18,"nombre":"Cake - Dulce De Leche","precio":"$0.40","origen":"Portugal"},
{"id":19,"nombre":"Soup - Campbells Mac N Cheese","precio":"$4.69","origen":"Spain"},
{"id":20,"nombre":"Tuna - Yellowfin","precio":"$7.07","origen":"Colombia"},
{"id":21,"nombre":"Curry Powder Madras","precio":"$3.46","origen":"Mexico"},
{"id":22,"nombre":"Onion - Dried","precio":"$5.02","origen":"Peru"},
{"id":23,"nombre":"Lamb Rack - Ontario","precio":"$3.16","origen":"Peru"},
{"id":24,"nombre":"Prunes - Pitted","precio":"$6.04","origen":"Argentina"},
{"id":25,"nombre":"Napkin - Dinner, White","precio":"$8.47","origen":"Argentina"},
{"id":26,"nombre":"Pork Loin Cutlets","precio":"$8.13","origen":"Peru"},
{"id":27,"nombre":"Eggplant Italian","precio":"$1.89","origen":"Colombia"},
{"id":28,"nombre":"Water - Spring Water, 355 Ml","precio":"$8.88","origen":"Colombia"},
{"id":29,"nombre":"Plasticspoonblack","precio":"$6.00","origen":"Mexico"},
{"id":30,"nombre":"Lambcasing","precio":"$4.48","origen":"Argentina"},
{"id":31,"nombre":"Plasticspoonblack","precio":"$6.58","origen":"Colombia"},
{"id":32,"nombre":"Juice - Lime","precio":"$3.52","origen":"Peru"},
{"id":33,"nombre":"Gingerale - Schweppes, 355 Ml","precio":"$4.11","origen":"Portugal"},
{"id":34,"nombre":"Flour - So Mix Cake White","precio":"$3.35","origen":"Portugal"},
{"id":35,"nombre":"Yogurt - Plain","precio":"$4.82","origen":"Portugal"},
{"id":36,"nombre":"Coffee Swiss Choc Almond","precio":"$7.38","origen":"Portugal"},
{"id":37,"nombre":"French Pastry - Mini Chocolate","precio":"$7.42","origen":"Portugal"},
{"id":38,"nombre":"Isomalt","precio":"$1.39","origen":"Portugal"},
{"id":39,"nombre":"Country Roll","precio":"$6.77","origen":"Peru"},
{"id":40,"nombre":"Tuna - Sushi Grade","precio":"$9.58","origen":"Portugal"},
{"id":41,"nombre":"Asparagus - White, Fresh","precio":"$8.74","origen":"Colombia"},
{"id":42,"nombre":"Chick Peas - Dried","precio":"$0.56","origen":"Portugal"},
{"id":43,"nombre":"Wine - Placido Pinot Grigo","precio":"$5.84","origen":"Argentina"},
{"id":44,"nombre":"Chips - Doritos","precio":"$0.32","origen":"Argentina"},
{"id":45,"nombre":"Juice - Ocean Spray Cranberry","precio":"$3.62","origen":"Colombia"},
{"id":46,"nombre":"Mince Meat - Filling","precio":"$8.75","origen":"Mexico"},
{"id":47,"nombre":"Barley - Pearl","precio":"$1.97","origen":"Portugal"},
{"id":48,"nombre":"Beer - Mill St Organic","precio":"$2.13","origen":"Peru"},
{"id":49,"nombre":"Bread - Rosemary Focaccia","precio":"$6.54","origen":"Peru"},
{"id":50,"nombre":"Mushrooms - Honey","precio":"$1.42","origen":"Mexico"},
{"id":51,"nombre":"Arizona - Green Tea","precio":"$6.33","origen":"Portugal"},
{"id":52,"nombre":"Cheese - Colby","precio":"$8.25","origen":"Colombia"},
{"id":53,"nombre":"Olive - Spread Tapenade","precio":"$4.10","origen":"Mexico"},
{"id":54,"nombre":"Cheese - Mozzarella, Buffalo","precio":"$1.16","origen":"Argentina"},
{"id":55,"nombre":"Red Snapper - Fresh, Whole","precio":"$4.60","origen":"Peru"},
{"id":56,"nombre":"Gelatine Leaves - Bulk","precio":"$0.61","origen":"Portugal"},
{"id":57,"nombre":"Bread - Calabrese Baguette","precio":"$8.98","origen":"Colombia"},
{"id":58,"nombre":"Loquat","precio":"$2.15","origen":"Portugal"},
{"id":59,"nombre":"Pork - Ham, Virginia","precio":"$9.66","origen":"Portugal"},
{"id":60,"nombre":"Bread - Roll, Calabrese","precio":"$1.20","origen":"Mexico"},
{"id":61,"nombre":"Tomatoes - Heirloom","precio":"$3.20","origen":"Argentina"},
{"id":62,"nombre":"Jolt Cola - Electric Blue","precio":"$4.20","origen":"Portugal"},
{"id":63,"nombre":"Milk - Buttermilk","precio":"$0.77","origen":"Peru"},
{"id":64,"nombre":"Pork Salted Bellies","precio":"$7.74","origen":"Peru"},
{"id":65,"nombre":"Vanilla Beans","precio":"$3.09","origen":"Mexico"},
{"id":66,"nombre":"Ham - Proscuitto","precio":"$7.37","origen":"Peru"},
{"id":67,"nombre":"Tabasco Sauce, 2 Oz","precio":"$3.38","origen":"Peru"},
{"id":68,"nombre":"Onions - Pearl","precio":"$2.00","origen":"Portugal"},
{"id":69,"nombre":"Snapple Lemon Tea","precio":"$6.45","origen":"Portugal"},
{"id":70,"nombre":"Carbonated Water - White Grape","precio":"$3.87","origen":"Portugal"},
{"id":71,"nombre":"Mustard Prepared","precio":"$2.74","origen":"Portugal"},
{"id":72,"nombre":"Sambuca - Ramazzotti","precio":"$0.63","origen":"Colombia"},
{"id":73,"nombre":"Shrimp - Black Tiger 26/30","precio":"$1.61","origen":"Mexico"},
{"id":74,"nombre":"Chocolate - Sugar Free Semi Choc","precio":"$6.30","origen":"Peru"},
{"id":75,"nombre":"Eggplant Oriental","precio":"$6.55","origen":"Portugal"},
{"id":76,"nombre":"Beef - Ox Tongue, Pickled","precio":"$8.18","origen":"Portugal"},
{"id":77,"nombre":"Jam - Raspberry","precio":"$5.93","origen":"Portugal"},
{"id":78,"nombre":"Pepper - White, Whole","precio":"$0.35","origen":"Portugal"},
{"id":79,"nombre":"Bread - Raisin Walnut Pull","precio":"$6.24","origen":"Portugal"},
{"id":80,"nombre":"Ice Cream - Chocolate","precio":"$1.73","origen":"Peru"},
{"id":81,"nombre":"Rum - Light, Captain Morgan","precio":"$0.28","origen":"Portugal"},
{"id":82,"nombre":"Oil - Coconut","precio":"$8.36","origen":"Portugal"},
{"id":83,"nombre":"Wine - Valpolicella Masi","precio":"$1.57","origen":"Peru"},
{"id":84,"nombre":"Cup Translucent 9 Oz","precio":"$5.16","origen":"Portugal"},
{"id":85,"nombre":"Turnip - Wax","precio":"$7.03","origen":"Portugal"},
{"id":86,"nombre":"Egg Patty Fried","precio":"$5.07","origen":"Peru"},
{"id":87,"nombre":"Scallops - Live In Shell","precio":"$4.38","origen":"Peru"},
{"id":88,"nombre":"Puff Pastry - Slab","precio":"$5.49","origen":"Mexico"},
{"id":89,"nombre":"Yokaline","precio":"$7.00","origen":"Argentina"},
{"id":90,"nombre":"Lobster - Canned Premium","precio":"$6.49","origen":"Argentina"},
{"id":91,"nombre":"Flour - Bran, Red","precio":"$2.69","origen":"Argentina"},
{"id":92,"nombre":"Carbonated Water - Cherry","precio":"$2.60","origen":"Peru"},
{"id":93,"nombre":"Beer - Creemore","precio":"$7.24","origen":"Argentina"},
{"id":94,"nombre":"Lychee - Canned","precio":"$8.60","origen":"Portugal"},
{"id":95,"nombre":"Bread - 10 Grain","precio":"$4.53","origen":"Mexico"},
{"id":96,"nombre":"Towels - Paper / Kraft","precio":"$1.74","origen":"Mexico"},
{"id":97,"nombre":"Pastry - Apple Large","precio":"$2.48","origen":"Portugal"},
{"id":98,"nombre":"Pickle - Dill","precio":"$2.53","origen":"Peru"},
{"id":99,"nombre":"Spinach - Packaged","precio":"$9.26","origen":"Peru"},
{"id":100,"nombre":"Cheese - Brick With Onion","precio":"$7.32","origen":"Portugal"},
{"id":101,"nombre":"Stainless Steel Cleaner Vision","precio":"$4.00","origen":"Colombia"},
{"id":102,"nombre":"Muffin Batt - Blueberry Passion","precio":"$3.49","origen":"Argentina"},
{"id":103,"nombre":"Leeks - Large","precio":"$2.68","origen":"Colombia"},
{"id":104,"nombre":"Wine - Champagne Brut Veuve","precio":"$7.29","origen":"Argentina"},
{"id":105,"nombre":"Juice - Prune","precio":"$0.33","origen":"Mexico"},
{"id":106,"nombre":"Mix Pina Colada","precio":"$5.25","origen":"Mexico"},
{"id":107,"nombre":"Sambuca - Ramazzotti","precio":"$6.73","origen":"Argentina"},
{"id":108,"nombre":"Soup - Chicken And Wild Rice","precio":"$3.15","origen":"Colombia"},
{"id":109,"nombre":"Mayonnaise - Individual Pkg","precio":"$2.77","origen":"Spain"},
{"id":110,"nombre":"Bagels Poppyseed","precio":"$3.65","origen":"Portugal"},
{"id":111,"nombre":"Cookie Dough - Double","precio":"$8.41","origen":"Mexico"},
{"id":112,"nombre":"Catfish - Fillets","precio":"$1.05","origen":"Portugal"},
{"id":113,"nombre":"Filo Dough","precio":"$9.18","origen":"Peru"},
{"id":114,"nombre":"Neckerchief Blck","precio":"$3.75","origen":"Portugal"},
{"id":115,"nombre":"Wine - Red, Cooking","precio":"$7.99","origen":"Argentina"},
{"id":116,"nombre":"Chocolate - Compound Coating","precio":"$3.09","origen":"Peru"},
{"id":117,"nombre":"Nut - Almond, Blanched, Whole","precio":"$7.32","origen":"Colombia"},
{"id":118,"nombre":"Sauce - Roasted Red Pepper","precio":"$3.72","origen":"Argentina"},
{"id":119,"nombre":"Kiwi","precio":"$6.52","origen":"Mexico"},
{"id":120,"nombre":"Rice Pilaf, Dry,package","precio":"$8.40","origen":"Portugal"},
{"id":121,"nombre":"Lemonade - Mandarin, 591 Ml","precio":"$4.74","origen":"Peru"},
{"id":122,"nombre":"Cheese Cloth No 60","precio":"$5.66","origen":"Portugal"},
{"id":123,"nombre":"Wine - Red, Pinot Noir, Chateau","precio":"$5.05","origen":"Portugal"},
{"id":124,"nombre":"Sauce - Thousand Island","precio":"$9.44","origen":"Portugal"},
{"id":125,"nombre":"Pepperoni Slices","precio":"$6.54","origen":"Portugal"},
{"id":126,"nombre":"Pear - Prickly","precio":"$5.98","origen":"Portugal"},
{"id":127,"nombre":"Cornish Hen","precio":"$0.79","origen":"Colombia"},
{"id":128,"nombre":"Soup - Campbells, Minestrone","precio":"$1.35","origen":"Argentina"},
{"id":129,"nombre":"Chips - Miss Vickies","precio":"$7.06","origen":"Mexico"},
{"id":130,"nombre":"Crab - Imitation Flakes","precio":"$9.70","origen":"Portugal"},
{"id":131,"nombre":"Tomatoes Tear Drop","precio":"$2.50","origen":"Colombia"},
{"id":132,"nombre":"Spinach - Spinach Leaf","precio":"$9.81","origen":"Peru"},
{"id":133,"nombre":"Olives - Kalamata","precio":"$0.45","origen":"Argentina"},
{"id":134,"nombre":"Dasheen","precio":"$9.90","origen":"Peru"},
{"id":135,"nombre":"Tomato - Peeled Italian Canned","precio":"$0.08","origen":"Portugal"},
{"id":136,"nombre":"Cloves - Ground","precio":"$3.56","origen":"Argentina"},
{"id":137,"nombre":"Peach - Fresh","precio":"$9.72","origen":"Argentina"},
{"id":138,"nombre":"Squash - Sunburst","precio":"$9.13","origen":"Portugal"},
{"id":139,"nombre":"Wine - Hardys Bankside Shiraz","precio":"$8.43","origen":"Argentina"},
{"id":140,"nombre":"Frangelico","precio":"$0.64","origen":"Portugal"},
{"id":141,"nombre":"Juice - Mango","precio":"$8.37","origen":"Peru"},
{"id":142,"nombre":"Bag - Bread, White, Plain","precio":"$5.04","origen":"Portugal"},
{"id":143,"nombre":"Sugar - Fine","precio":"$2.05","origen":"Argentina"},
{"id":144,"nombre":"Veal - Ground","precio":"$7.91","origen":"Argentina"},
{"id":145,"nombre":"Ice Cream - Life Savers","precio":"$6.52","origen":"Argentina"},
{"id":146,"nombre":"Filo Dough","precio":"$0.80","origen":"Portugal"},
{"id":147,"nombre":"Sage Ground Wiberg","precio":"$4.94","origen":"Peru"},
{"id":148,"nombre":"Bread - Raisin Walnut Oval","precio":"$8.23","origen":"Mexico"},
{"id":149,"nombre":"Calypso - Strawberry Lemonade","precio":"$8.64","origen":"Portugal"},
{"id":150,"nombre":"Wine - Chenin Blanc K.w.v.","precio":"$4.50","origen":"Colombia"},
{"id":151,"nombre":"Bread - Petit Baguette","precio":"$8.98","origen":"Mexico"},
{"id":152,"nombre":"Anisette - Mcguiness","precio":"$6.59","origen":"Spain"},
{"id":153,"nombre":"Honey - Liquid","precio":"$6.47","origen":"Portugal"},
{"id":154,"nombre":"Arizona - Green Tea","precio":"$8.48","origen":"Colombia"},
{"id":155,"nombre":"Pork - Loin, Bone - In","precio":"$2.18","origen":"Colombia"},
{"id":156,"nombre":"Mushrooms - Black, Dried","precio":"$5.02","origen":"Colombia"},
{"id":157,"nombre":"Wine - Cava Aria Estate Brut","precio":"$4.50","origen":"Colombia"},
{"id":158,"nombre":"Bouq All Italian - Primerba","precio":"$3.03","origen":"Peru"},
{"id":159,"nombre":"Lobster - Base","precio":"$5.62","origen":"Portugal"},
{"id":160,"nombre":"Extract - Lemon","precio":"$7.29","origen":"Colombia"},
{"id":161,"nombre":"Container - Foam Dixie 12 Oz","precio":"$9.41","origen":"Colombia"},
{"id":162,"nombre":"Cookie - Oatmeal","precio":"$0.29","origen":"Portugal"},
{"id":163,"nombre":"Wine - Niagara,vqa Reisling","precio":"$7.46","origen":"Portugal"},
{"id":164,"nombre":"Pheasants - Whole","precio":"$5.42","origen":"Colombia"},
{"id":165,"nombre":"Cheese - Fontina","precio":"$1.51","origen":"Portugal"},
{"id":166,"nombre":"Carbonated Water - Cherry","precio":"$2.76","origen":"Argentina"},
{"id":167,"nombre":"Beer - True North Strong Ale","precio":"$0.19","origen":"Argentina"},
{"id":168,"nombre":"Nantucket Orange Juice","precio":"$9.80","origen":"Peru"},
{"id":169,"nombre":"Wine - Manischewitz Concord","precio":"$0.37","origen":"Peru"},
{"id":170,"nombre":"Wine - Red, Marechal Foch","precio":"$0.86","origen":"Portugal"},
{"id":171,"nombre":"Filter - Coffee","precio":"$1.12","origen":"Peru"},
{"id":172,"nombre":"Squeeze Bottle","precio":"$7.07","origen":"Argentina"},
{"id":173,"nombre":"Corn - Cream, Canned","precio":"$3.29","origen":"Portugal"},
{"id":174,"nombre":"Table Cloth 144x90 White","precio":"$1.15","origen":"Colombia"},
{"id":175,"nombre":"Steam Pan Full Lid","precio":"$3.13","origen":"Colombia"},
{"id":176,"nombre":"Coffee - Espresso","precio":"$9.56","origen":"Spain"},
{"id":177,"nombre":"Appetizer - Cheese Bites","precio":"$7.85","origen":"Colombia"},
{"id":178,"nombre":"Chinese Foods - Chicken Wing","precio":"$7.47","origen":"Peru"},
{"id":179,"nombre":"Nut - Hazelnut, Whole","precio":"$9.26","origen":"Peru"},
{"id":180,"nombre":"Arctic Char - Fresh, Whole","precio":"$3.75","origen":"Argentina"},
{"id":181,"nombre":"Chocolate - Milk","precio":"$9.36","origen":"Portugal"},
{"id":182,"nombre":"Dikon","precio":"$7.62","origen":"Portugal"},
{"id":183,"nombre":"Pie Shell - 5","precio":"$0.43","origen":"Mexico"},
{"id":184,"nombre":"Poppy Seed","precio":"$8.22","origen":"Mexico"},
{"id":185,"nombre":"Graham Cracker Mix","precio":"$0.15","origen":"Argentina"},
{"id":186,"nombre":"Wine - Delicato Merlot","precio":"$3.04","origen":"Mexico"},
{"id":187,"nombre":"Aspic - Light","precio":"$1.81","origen":"Peru"},
{"id":188,"nombre":"Island Oasis - Raspberry","precio":"$5.09","origen":"Colombia"},
{"id":189,"nombre":"Pastry - Carrot Muffin - Mini","precio":"$8.46","origen":"Uruguay"},
{"id":190,"nombre":"Curry Paste - Madras","precio":"$7.22","origen":"Argentina"},
{"id":191,"nombre":"Mince Meat - Filling","precio":"$3.75","origen":"Peru"},
{"id":192,"nombre":"Bread - Bagels, Mini","precio":"$0.73","origen":"Peru"},
{"id":193,"nombre":"Cheese - Valancey","precio":"$2.97","origen":"Portugal"},
{"id":194,"nombre":"Food Colouring - Blue","precio":"$2.78","origen":"Mexico"},
{"id":195,"nombre":"Chicken - White Meat With Tender","precio":"$5.92","origen":"Portugal"},
{"id":196,"nombre":"Eggs - Extra Large","precio":"$4.85","origen":"Colombia"},
{"id":197,"nombre":"Extract Vanilla Pure","precio":"$6.65","origen":"Colombia"},
{"id":198,"nombre":"Iced Tea - Lemon, 460 Ml","precio":"$7.67","origen":"Colombia"},
{"id":199,"nombre":"Lemon Tarts","precio":"$0.58","origen":"Peru"},
{"id":200,"nombre":"Shrimp - Black Tiger 6 - 8","precio":"$8.07","origen":"Peru"},
{"id":201,"nombre":"Wine - Magnotta, White","precio":"$7.15","origen":"Argentina"},
{"id":202,"nombre":"Steampan - Half Size Shallow","precio":"$9.44","origen":"Portugal"},
{"id":203,"nombre":"Gherkin","precio":"$7.70","origen":"Argentina"},
{"id":204,"nombre":"Wine - Casillero Del Diablo","precio":"$6.20","origen":"Portugal"},
{"id":205,"nombre":"Cheese - Parmesan Grated","precio":"$0.65","origen":"Portugal"},
{"id":206,"nombre":"Garlic Powder","precio":"$6.27","origen":"Portugal"},
{"id":207,"nombre":"Bamboo Shoots - Sliced","precio":"$5.27","origen":"Peru"},
{"id":208,"nombre":"Carbonated Water - White Grape","precio":"$6.26","origen":"Mexico"},
{"id":209,"nombre":"Beef - Salted","precio":"$8.15","origen":"Argentina"},
{"id":210,"nombre":"Sauce - Alfredo","precio":"$5.87","origen":"Portugal"},
{"id":211,"nombre":"Flour - All Purpose","precio":"$9.41","origen":"Portugal"},
{"id":212,"nombre":"Wheat - Soft Kernal Of Wheat","precio":"$7.96","origen":"Argentina"},
{"id":213,"nombre":"Veal - Insides Provini","precio":"$0.06","origen":"Argentina"},
{"id":214,"nombre":"Beef - Ox Tongue","precio":"$3.34","origen":"Colombia"},
{"id":215,"nombre":"Lobster - Baby, Boiled","precio":"$4.17","origen":"Colombia"},
{"id":216,"nombre":"Oil - Margarine","precio":"$0.69","origen":"Portugal"},
{"id":217,"nombre":"Mushrooms - Honey","precio":"$8.25","origen":"Colombia"},
{"id":218,"nombre":"Wine - Montecillo Rioja Crianza","precio":"$6.72","origen":"Argentina"},
{"id":219,"nombre":"Cheese Cloth No 100","precio":"$1.51","origen":"Mexico"},
{"id":220,"nombre":"Longos - Lasagna Veg","precio":"$7.11","origen":"Mexico"},
{"id":221,"nombre":"Sauce - Hollandaise","precio":"$9.99","origen":"Portugal"},
{"id":222,"nombre":"Amaretto","precio":"$5.68","origen":"Spain"},
{"id":223,"nombre":"Wine - Crozes Hermitage E.","precio":"$9.90","origen":"Portugal"},
{"id":224,"nombre":"Wine - Red, Gamay Noir","precio":"$8.12","origen":"Argentina"},
{"id":225,"nombre":"Bread - Dark Rye","precio":"$8.51","origen":"Mexico"},
{"id":226,"nombre":"Potatoes - Instant, Mashed","precio":"$6.48","origen":"Peru"},
{"id":227,"nombre":"Ecolab - Lime - A - Way 4/4 L","precio":"$9.43","origen":"Colombia"},
{"id":228,"nombre":"Rolled Oats","precio":"$8.04","origen":"Colombia"},
{"id":229,"nombre":"Beer - Blue","precio":"$4.46","origen":"Portugal"},
{"id":230,"nombre":"Barramundi","precio":"$7.03","origen":"Colombia"},
{"id":231,"nombre":"Wine - Crozes Hermitage E.","precio":"$0.49","origen":"Mexico"},
{"id":232,"nombre":"Pumpkin - Seed","precio":"$6.03","origen":"Argentina"},
{"id":233,"nombre":"Oil - Olive","precio":"$3.65","origen":"Portugal"},
{"id":234,"nombre":"Pomegranates","precio":"$7.38","origen":"Portugal"},
{"id":235,"nombre":"Cheese - Swiss","precio":"$2.37","origen":"Portugal"},
{"id":236,"nombre":"Muffin Mix - Carrot","precio":"$6.42","origen":"Colombia"},
{"id":237,"nombre":"Vegetable - Base","precio":"$5.49","origen":"Portugal"},
{"id":238,"nombre":"Chervil - Fresh","precio":"$9.19","origen":"Argentina"},
{"id":239,"nombre":"Whmis Spray Bottle Graduated","precio":"$9.53","origen":"Mexico"},
{"id":240,"nombre":"Longos - Grilled Veg Sandwiches","precio":"$2.85","origen":"Portugal"},
{"id":241,"nombre":"Compound - Raspberry","precio":"$6.79","origen":"Portugal"},
{"id":242,"nombre":"Coffee - Almond Amaretto","precio":"$2.62","origen":"Colombia"},
{"id":243,"nombre":"Lamb Rack Frenched Australian","precio":"$5.90","origen":"Portugal"},
{"id":244,"nombre":"Ecolab - Balanced Fusion","precio":"$2.62","origen":"Portugal"},
{"id":245,"nombre":"Pork Salted Bellies","precio":"$4.51","origen":"Argentina"},
{"id":246,"nombre":"Pepper - Black, Crushed","precio":"$6.64","origen":"Argentina"},
{"id":247,"nombre":"Dry Ice","precio":"$6.65","origen":"Spain"},
{"id":248,"nombre":"Shrimp - 16/20, Iqf, Shell On","precio":"$4.81","origen":"Portugal"},
{"id":249,"nombre":"Bread Crumbs - Japanese Style","precio":"$8.15","origen":"Portugal"},
{"id":250,"nombre":"Squid - U 5","precio":"$7.84","origen":"Colombia"},
{"id":251,"nombre":"Wine - Zinfandel California 2002","precio":"$7.57","origen":"Spain"},
{"id":252,"nombre":"Ecolab - Hobart Upr Prewash Arm","precio":"$8.57","origen":"Peru"},
{"id":253,"nombre":"Tortillas - Flour, 10","precio":"$1.09","origen":"Colombia"},
{"id":254,"nombre":"Onions - Spanish","precio":"$3.72","origen":"Colombia"},
{"id":255,"nombre":"Wooden Mop Handle","precio":"$2.56","origen":"Portugal"},
{"id":256,"nombre":"Carbonated Water - Lemon Lime","precio":"$9.79","origen":"Portugal"},
{"id":257,"nombre":"Flour - So Mix Cake White","precio":"$9.49","origen":"Uruguay"},
{"id":258,"nombre":"Sauce - Fish 25 Ozf Bottle","precio":"$2.51","origen":"Portugal"},
{"id":259,"nombre":"Chilli Paste, Ginger Garlic","precio":"$6.49","origen":"Portugal"},
{"id":260,"nombre":"Oil - Shortening - All - Purpose","precio":"$0.39","origen":"Argentina"},
{"id":261,"nombre":"Broccoli - Fresh","precio":"$1.60","origen":"Portugal"},
{"id":262,"nombre":"Glycerine","precio":"$7.09","origen":"Mexico"},
{"id":263,"nombre":"Rambutan","precio":"$0.66","origen":"Portugal"},
{"id":264,"nombre":"Pheasants - Whole","precio":"$9.01","origen":"Mexico"},
{"id":265,"nombre":"Mushroom - Porcini Frozen","precio":"$5.87","origen":"Argentina"},
{"id":266,"nombre":"Puree - Mango","precio":"$8.11","origen":"Argentina"},
{"id":267,"nombre":"C - Plus, Orange","precio":"$2.79","origen":"Peru"},
{"id":268,"nombre":"Cranberries - Frozen","precio":"$2.98","origen":"Portugal"},
{"id":269,"nombre":"Seabream Whole Farmed","precio":"$1.78","origen":"Argentina"},
{"id":270,"nombre":"Urban Zen Drinks","precio":"$3.97","origen":"Portugal"},
{"id":271,"nombre":"Grenadine","precio":"$7.97","origen":"Spain"},
{"id":272,"nombre":"Eggplant - Baby","precio":"$0.75","origen":"Peru"},
{"id":273,"nombre":"Bread Crumbs - Japanese Style","precio":"$3.13","origen":"Spain"},
{"id":274,"nombre":"Rum - Dark, Bacardi, Black","precio":"$7.05","origen":"Peru"},
{"id":275,"nombre":"Wine - Gewurztraminer Pierre","precio":"$4.98","origen":"Peru"},
{"id":276,"nombre":"Bar Bran Honey Nut","precio":"$2.97","origen":"Colombia"},
{"id":277,"nombre":"Lettuce - Baby Salad Greens","precio":"$6.07","origen":"Portugal"},
{"id":278,"nombre":"Kiwi","precio":"$2.26","origen":"Portugal"},
{"id":279,"nombre":"Ecolab - Ster Bac","precio":"$0.64","origen":"Argentina"},
{"id":280,"nombre":"Cornish Hen","precio":"$9.21","origen":"Portugal"},
{"id":281,"nombre":"Cake - French Pear Tart","precio":"$9.66","origen":"Peru"},
{"id":282,"nombre":"Sauce - Caesar Dressing","precio":"$6.18","origen":"Colombia"},
{"id":283,"nombre":"Tart Shells - Sweet, 2","precio":"$6.40","origen":"Argentina"},
{"id":284,"nombre":"Bread - Assorted Rolls","precio":"$4.52","origen":"Argentina"},
{"id":285,"nombre":"Seedlings - Mix, Organic","precio":"$1.85","origen":"Peru"},
{"id":286,"nombre":"Bread - Calabrese Baguette","precio":"$0.08","origen":"Colombia"},
{"id":287,"nombre":"Bread - Corn Muffaleta Onion","precio":"$9.65","origen":"Mexico"},
{"id":288,"nombre":"Tea - Lemon Scented","precio":"$9.33","origen":"Portugal"},
{"id":289,"nombre":"Brandy - Orange, Mc Guiness","precio":"$4.58","origen":"Portugal"},
{"id":290,"nombre":"Crackers - Melba Toast","precio":"$9.89","origen":"Argentina"},
{"id":291,"nombre":"Shrimp - Black Tiger 16/20","precio":"$0.56","origen":"Portugal"},
{"id":292,"nombre":"Wine - Rosso Del Veronese Igt","precio":"$0.37","origen":"Colombia"},
{"id":293,"nombre":"Sage - Fresh","precio":"$3.74","origen":"Peru"},
{"id":294,"nombre":"Pasta - Angel Hair","precio":"$8.43","origen":"Mexico"},
{"id":295,"nombre":"Bread - Focaccia Quarter","precio":"$4.01","origen":"Portugal"},
{"id":296,"nombre":"Beef - Striploin Aa","precio":"$1.98","origen":"Mexico"},
{"id":297,"nombre":"Mustard - Individual Pkg","precio":"$3.29","origen":"Mexico"},
{"id":298,"nombre":"Longos - Assorted Sandwich","precio":"$0.28","origen":"Portugal"},
{"id":299,"nombre":"Appetizer - Shrimp Puff","precio":"$8.28","origen":"Colombia"},
{"id":300,"nombre":"Anisette - Mcguiness","precio":"$5.30","origen":"Colombia"},
{"id":301,"nombre":"Soup Campbells - Italian Wedding","precio":"$6.26","origen":"Portugal"},
{"id":302,"nombre":"Triple Sec - Mcguinness","precio":"$7.33","origen":"Peru"},
{"id":303,"nombre":"Swiss Chard - Red","precio":"$2.07","origen":"Colombia"},
{"id":304,"nombre":"Cabbage - Red","precio":"$6.08","origen":"Argentina"},
{"id":305,"nombre":"Vinegar - Red Wine","precio":"$9.82","origen":"Colombia"},
{"id":306,"nombre":"Quail - Jumbo","precio":"$0.61","origen":"Argentina"},
{"id":307,"nombre":"Bread Crumbs - Panko","precio":"$3.68","origen":"Mexico"},
{"id":308,"nombre":"Duck - Fat","precio":"$7.92","origen":"Portugal"},
{"id":309,"nombre":"Strawberries","precio":"$2.79","origen":"Uruguay"},
{"id":310,"nombre":"Hot Choc Vending","precio":"$8.76","origen":"Portugal"},
{"id":311,"nombre":"Rappini - Andy Boy","precio":"$4.95","origen":"Portugal"},
{"id":312,"nombre":"Wine - Fume Blanc Fetzer","precio":"$7.42","origen":"Portugal"},
{"id":313,"nombre":"Cilantro / Coriander - Fresh","precio":"$0.89","origen":"Portugal"},
{"id":314,"nombre":"Lettuce - Curly Endive","precio":"$4.83","origen":"Peru"},
{"id":315,"nombre":"Wood Chips - Regular","precio":"$4.51","origen":"Portugal"},
{"id":316,"nombre":"Jolt Cola - Red Eye","precio":"$5.96","origen":"Spain"},
{"id":317,"nombre":"Pasta - Fusili, Dry","precio":"$2.66","origen":"Spain"},
{"id":318,"nombre":"Coffee - Flavoured","precio":"$1.87","origen":"Mexico"},
{"id":319,"nombre":"Appetizer - Chicken Satay","precio":"$3.06","origen":"Mexico"},
{"id":320,"nombre":"Island Oasis - Peach Daiquiri","precio":"$6.96","origen":"Peru"},
{"id":321,"nombre":"Fuji Apples","precio":"$4.28","origen":"Portugal"},
{"id":322,"nombre":"Tea Leaves - Oolong","precio":"$6.46","origen":"Peru"},
{"id":323,"nombre":"Chilli Paste, Hot Sambal Oelek","precio":"$4.63","origen":"Portugal"},
{"id":324,"nombre":"Celery Root","precio":"$8.90","origen":"Portugal"},
{"id":325,"nombre":"Rice - Brown","precio":"$3.53","origen":"Colombia"},
{"id":326,"nombre":"Mussels - Cultivated","precio":"$7.61","origen":"Portugal"},
{"id":327,"nombre":"Tart - Butter Plain Squares","precio":"$0.28","origen":"Colombia"},
{"id":328,"nombre":"Sauce - Alfredo","precio":"$3.15","origen":"Portugal"},
{"id":329,"nombre":"Table Cloth 90x90 Colour","precio":"$0.38","origen":"Portugal"},
{"id":330,"nombre":"Cloves - Ground","precio":"$6.37","origen":"Colombia"},
{"id":331,"nombre":"Soup - Campbells, Beef Barley","precio":"$0.66","origen":"Portugal"},
{"id":332,"nombre":"Wine - Placido Pinot Grigo","precio":"$2.94","origen":"Peru"},
{"id":333,"nombre":"Wine - Sauvignon Blanc","precio":"$0.08","origen":"Portugal"},
{"id":334,"nombre":"Chocolate - Semi Sweet, Calets","precio":"$2.25","origen":"Spain"},
{"id":335,"nombre":"Beans - Green","precio":"$8.97","origen":"Portugal"},
{"id":336,"nombre":"Syrup - Pancake","precio":"$0.97","origen":"Peru"},
{"id":337,"nombre":"Duck - Breast","precio":"$7.83","origen":"Portugal"},
{"id":338,"nombre":"Goldschalger","precio":"$7.66","origen":"Colombia"},
{"id":339,"nombre":"Piping - Bags Quizna","precio":"$7.82","origen":"Portugal"},
{"id":340,"nombre":"Veal - Liver","precio":"$0.84","origen":"Portugal"},
{"id":341,"nombre":"Corn Kernels - Frozen","precio":"$5.27","origen":"Portugal"},
{"id":342,"nombre":"Cake - French Pear Tart","precio":"$3.99","origen":"Mexico"},
{"id":343,"nombre":"Sea Bass - Fillets","precio":"$0.47","origen":"Peru"},
{"id":344,"nombre":"Cherries - Fresh","precio":"$8.80","origen":"Uruguay"},
{"id":345,"nombre":"Rolled Oats","precio":"$2.13","origen":"Mexico"},
{"id":346,"nombre":"Mushroom Morel Fresh","precio":"$7.81","origen":"Argentina"},
{"id":347,"nombre":"Juice - Clamato, 341 Ml","precio":"$3.15","origen":"Portugal"},
{"id":348,"nombre":"Carrots - Purple, Organic","precio":"$7.58","origen":"Argentina"},
{"id":349,"nombre":"Bulgar","precio":"$9.34","origen":"Colombia"},
{"id":350,"nombre":"Oil - Olive, Extra Virgin","precio":"$5.31","origen":"Colombia"},
{"id":351,"nombre":"Dome Lid Clear P92008h","precio":"$1.04","origen":"Colombia"},
{"id":352,"nombre":"Mix - Cocktail Strawberry Daiquiri","precio":"$5.66","origen":"Mexico"},
{"id":353,"nombre":"Bar Nature Valley","precio":"$1.83","origen":"Mexico"},
{"id":354,"nombre":"Gingerale - Diet - Schweppes","precio":"$3.69","origen":"Portugal"},
{"id":355,"nombre":"Tomatoes - Roma","precio":"$4.25","origen":"Peru"},
{"id":356,"nombre":"Cake - Bande Of Fruit","precio":"$7.68","origen":"Colombia"},
{"id":357,"nombre":"Asparagus - Mexican","precio":"$8.33","origen":"Argentina"},
{"id":358,"nombre":"Crab - Claws, 26 - 30","precio":"$5.75","origen":"Mexico"},
{"id":359,"nombre":"Cheese - Augre Des Champs","precio":"$7.18","origen":"Colombia"},
{"id":360,"nombre":"Containter - 3oz Microwave Rect.","precio":"$7.21","origen":"Mexico"},
{"id":361,"nombre":"Kirsch - Schloss","precio":"$3.96","origen":"Portugal"},
{"id":362,"nombre":"Bread - Dark Rye","precio":"$9.55","origen":"Colombia"},
{"id":363,"nombre":"Quail - Whole, Bone - In","precio":"$8.67","origen":"Portugal"},
{"id":364,"nombre":"Cookies - Assorted","precio":"$7.53","origen":"Colombia"},
{"id":365,"nombre":"Trout - Rainbow, Fresh","precio":"$4.25","origen":"Colombia"},
{"id":366,"nombre":"Chives - Fresh","precio":"$8.58","origen":"Portugal"},
{"id":367,"nombre":"Pear - Halves","precio":"$9.97","origen":"Peru"},
{"id":368,"nombre":"Cream - 35%","precio":"$8.83","origen":"Portugal"},
{"id":369,"nombre":"Wine - Kwv Chenin Blanc South","precio":"$9.81","origen":"Argentina"},
{"id":370,"nombre":"Cumin - Whole","precio":"$5.15","origen":"Argentina"},
{"id":371,"nombre":"Foil - 4oz Custard Cup","precio":"$9.94","origen":"Mexico"},
{"id":372,"nombre":"Bread - Raisin","precio":"$3.85","origen":"Peru"},
{"id":373,"nombre":"Coffee Cup 16oz Foam","precio":"$8.16","origen":"Portugal"},
{"id":374,"nombre":"French Kiss Vanilla","precio":"$3.26","origen":"Peru"},
{"id":375,"nombre":"Scallops - 10/20","precio":"$6.91","origen":"Portugal"},
{"id":376,"nombre":"Spring Roll Wrappers","precio":"$6.96","origen":"Argentina"},
{"id":377,"nombre":"Munchies Honey Sweet Trail Mix","precio":"$3.07","origen":"Mexico"},
{"id":378,"nombre":"Capon - Whole","precio":"$8.19","origen":"Colombia"},
{"id":379,"nombre":"Sauce - Black Current, Dry Mix","precio":"$6.15","origen":"Portugal"},
{"id":380,"nombre":"Soup - Knorr, Country Bean","precio":"$6.45","origen":"Peru"},
{"id":381,"nombre":"Wine - Piper Heidsieck Brut","precio":"$7.80","origen":"Peru"},
{"id":382,"nombre":"Tart - Lemon","precio":"$8.09","origen":"Portugal"},
{"id":383,"nombre":"Tea Peppermint","precio":"$0.05","origen":"Colombia"},
{"id":384,"nombre":"The Pop Shoppe - Root Beer","precio":"$0.80","origen":"Colombia"},
{"id":385,"nombre":"Praline Paste","precio":"$1.61","origen":"Portugal"},
{"id":386,"nombre":"Knife Plastic - White","precio":"$4.29","origen":"Peru"},
{"id":387,"nombre":"Oil - Food, Lacquer Spray","precio":"$0.74","origen":"Peru"},
{"id":388,"nombre":"Juice - Tomato, 48 Oz","precio":"$4.92","origen":"Mexico"},
{"id":389,"nombre":"Muffin Hinge - 211n","precio":"$2.06","origen":"Colombia"},
{"id":390,"nombre":"Muffin Carrot - Individual","precio":"$7.44","origen":"Argentina"},
{"id":391,"nombre":"Cut Wakame - Hanawakaba","precio":"$4.64","origen":"Spain"},
{"id":392,"nombre":"Cheese - Parmesan Cubes","precio":"$8.15","origen":"Colombia"},
{"id":393,"nombre":"Cookies - Assorted","precio":"$7.46","origen":"Portugal"},
{"id":394,"nombre":"Flour - Strong Pizza","precio":"$2.69","origen":"Portugal"},
{"id":395,"nombre":"Wine - Pinot Noir Stoneleigh","precio":"$2.99","origen":"Colombia"},
{"id":396,"nombre":"Truffle Shells - Semi - Sweet","precio":"$9.78","origen":"Portugal"},
{"id":397,"nombre":"Rice Paper","precio":"$3.25","origen":"Argentina"},
{"id":398,"nombre":"Beef - Striploin Aa","precio":"$5.24","origen":"Peru"},
{"id":399,"nombre":"Tortillas - Flour, 8","precio":"$5.36","origen":"Argentina"},
{"id":400,"nombre":"Honey - Liquid","precio":"$5.50","origen":"Mexico"},
{"id":401,"nombre":"Cheese - Marble","precio":"$1.31","origen":"Mexico"},
{"id":402,"nombre":"Gatorade - Xfactor Berry","precio":"$6.24","origen":"Colombia"},
{"id":403,"nombre":"Mangoes","precio":"$5.09","origen":"Peru"},
{"id":404,"nombre":"Beef - Striploin Aa","precio":"$6.98","origen":"Peru"},
{"id":405,"nombre":"Tea - Jasmin Green","precio":"$8.13","origen":"Mexico"},
{"id":406,"nombre":"Kiwi","precio":"$4.00","origen":"Colombia"},
{"id":407,"nombre":"Ham - Virginia","precio":"$0.98","origen":"Argentina"},
{"id":408,"nombre":"Cocktail Napkin Blue","precio":"$8.94","origen":"Peru"},
{"id":409,"nombre":"Chips - Potato Jalapeno","precio":"$0.61","origen":"Mexico"},
{"id":410,"nombre":"Juice - Apple 284ml","precio":"$3.70","origen":"Mexico"},
{"id":411,"nombre":"Oranges - Navel, 72","precio":"$2.99","origen":"Portugal"},
{"id":412,"nombre":"Scallops - U - 10","precio":"$6.19","origen":"Peru"},
{"id":413,"nombre":"Wine - Zonnebloem Pinotage","precio":"$3.06","origen":"Argentina"},
{"id":414,"nombre":"Gingerale - Schweppes, 355 Ml","precio":"$1.19","origen":"Argentina"},
{"id":415,"nombre":"Rye Special Old","precio":"$4.96","origen":"Portugal"},
{"id":416,"nombre":"Vinegar - Tarragon","precio":"$5.92","origen":"Peru"},
{"id":417,"nombre":"Crackers - Soda / Saltins","precio":"$8.23","origen":"Uruguay"},
{"id":418,"nombre":"Tart Shells - Savory, 2","precio":"$3.12","origen":"Portugal"},
{"id":419,"nombre":"Leeks - Baby, White","precio":"$6.85","origen":"Peru"},
{"id":420,"nombre":"Beef - Rib Roast, Capless","precio":"$9.19","origen":"Peru"},
{"id":421,"nombre":"Cheese - Parmesan Grated","precio":"$8.45","origen":"Mexico"},
{"id":422,"nombre":"Vegetable - Base","precio":"$0.30","origen":"Portugal"},
{"id":423,"nombre":"Wine - Remy Pannier Rose","precio":"$4.50","origen":"Argentina"},
{"id":424,"nombre":"Soup - French Onion","precio":"$3.52","origen":"Peru"},
{"id":425,"nombre":"Beer - Blue","precio":"$9.52","origen":"Peru"},
{"id":426,"nombre":"Bread - Calabrese Baguette","precio":"$1.61","origen":"Mexico"},
{"id":427,"nombre":"Cheese - Grie Des Champ","precio":"$3.22","origen":"Argentina"},
{"id":428,"nombre":"Ham - Proscuitto","precio":"$1.75","origen":"Portugal"},
{"id":429,"nombre":"Muffin Mix - Blueberry","precio":"$0.86","origen":"Portugal"},
{"id":430,"nombre":"Squash - Pattypan, Yellow","precio":"$3.95","origen":"Argentina"},
{"id":431,"nombre":"Appetizer - Cheese Bites","precio":"$2.47","origen":"Peru"},
{"id":432,"nombre":"Wine - Casillero Del Diablo","precio":"$6.11","origen":"Colombia"},
{"id":433,"nombre":"Quail - Whole, Boneless","precio":"$8.67","origen":"Colombia"},
{"id":434,"nombre":"Tomatoes - Cherry, Yellow","precio":"$9.99","origen":"Argentina"},
{"id":435,"nombre":"Chicken - Tenderloin","precio":"$1.65","origen":"Argentina"},
{"id":436,"nombre":"Lid - 10,12,16 Oz","precio":"$6.79","origen":"Peru"},
{"id":437,"nombre":"Beans - Turtle, Black, Dry","precio":"$3.37","origen":"Colombia"},
{"id":438,"nombre":"Lamb - Whole, Fresh","precio":"$6.95","origen":"Mexico"},
{"id":439,"nombre":"Longos - Assorted Sandwich","precio":"$1.48","origen":"Peru"},
{"id":440,"nombre":"Leeks - Baby, White","precio":"$1.53","origen":"Portugal"},
{"id":441,"nombre":"Beans - Long, Chinese","precio":"$6.48","origen":"Peru"},
{"id":442,"nombre":"Chinese Lemon Pork","precio":"$4.89","origen":"Portugal"},
{"id":443,"nombre":"Wine - Cotes Du Rhone Parallele","precio":"$4.12","origen":"Mexico"},
{"id":444,"nombre":"Cookies - Oreo, 4 Pack","precio":"$0.40","origen":"Peru"},
{"id":445,"nombre":"Cake - Pancake","precio":"$5.13","origen":"Colombia"},
{"id":446,"nombre":"Table Cloth 62x120 White","precio":"$1.14","origen":"Argentina"},
{"id":447,"nombre":"Red Snapper - Fresh, Whole","precio":"$2.34","origen":"Portugal"},
{"id":448,"nombre":"Nacho Chips","precio":"$4.07","origen":"Peru"},
{"id":449,"nombre":"Kiwi Gold Zespri","precio":"$1.56","origen":"Portugal"},
{"id":450,"nombre":"Tea Peppermint","precio":"$1.80","origen":"Peru"},
{"id":451,"nombre":"Canadian Emmenthal","precio":"$6.05","origen":"Peru"},
{"id":452,"nombre":"Turnip - Mini","precio":"$8.10","origen":"Uruguay"},
{"id":453,"nombre":"Eggplant - Regular","precio":"$7.70","origen":"Portugal"},
{"id":454,"nombre":"Broom And Broom Rack White","precio":"$7.44","origen":"Argentina"},
{"id":455,"nombre":"Spice - Montreal Steak Spice","precio":"$3.81","origen":"Mexico"},
{"id":456,"nombre":"Mints - Striped Red","precio":"$9.37","origen":"Portugal"},
{"id":457,"nombre":"Tamarind Paste","precio":"$6.94","origen":"Portugal"},
{"id":458,"nombre":"Dc - Frozen Momji","precio":"$8.69","origen":"Portugal"},
{"id":459,"nombre":"Devonshire Cream","precio":"$4.92","origen":"Argentina"},
{"id":460,"nombre":"Mushroom - White Button","precio":"$8.99","origen":"Colombia"},
{"id":461,"nombre":"Spinach - Frozen","precio":"$6.04","origen":"Argentina"},
{"id":462,"nombre":"Bread - Flat Bread","precio":"$8.32","origen":"Colombia"},
{"id":463,"nombre":"Breadfruit","precio":"$4.12","origen":"Colombia"},
{"id":464,"nombre":"Cookie Dough - Peanut Butter","precio":"$3.84","origen":"Mexico"},
{"id":465,"nombre":"Vacuum Bags 12x16","precio":"$1.74","origen":"Mexico"},
{"id":466,"nombre":"Flour Dark Rye","precio":"$0.14","origen":"Portugal"},
{"id":467,"nombre":"Grapes - Red","precio":"$0.91","origen":"Mexico"},
{"id":468,"nombre":"Beef - Diced","precio":"$0.15","origen":"Argentina"},
{"id":469,"nombre":"Steel Wool","precio":"$5.00","origen":"Colombia"},
{"id":470,"nombre":"Buffalo - Tenderloin","precio":"$2.62","origen":"Argentina"},
{"id":471,"nombre":"Tomatoes - Yellow Hot House","precio":"$8.60","origen":"Portugal"},
{"id":472,"nombre":"Club Soda - Schweppes, 355 Ml","precio":"$8.71","origen":"Portugal"},
{"id":473,"nombre":"Sprouts - Bean","precio":"$4.66","origen":"Argentina"},
{"id":474,"nombre":"Croissant, Raw - Mini","precio":"$7.75","origen":"Portugal"},
{"id":475,"nombre":"Beef - Rib Roast, Capless","precio":"$4.75","origen":"Colombia"},
{"id":476,"nombre":"V8 Splash Strawberry Banana","precio":"$3.36","origen":"Portugal"},
{"id":477,"nombre":"Wine - Magnotta - Cab Franc","precio":"$0.78","origen":"Portugal"},
{"id":478,"nombre":"Wine - Chardonnay Mondavi","precio":"$1.45","origen":"Portugal"},
{"id":479,"nombre":"Turnip - White","precio":"$1.56","origen":"Colombia"},
{"id":480,"nombre":"Rum - Spiced, Captain Morgan","precio":"$0.94","origen":"Mexico"},
{"id":481,"nombre":"Bread - Multigrain Oval","precio":"$8.40","origen":"Argentina"},
{"id":482,"nombre":"Beef - Sushi Flat Iron Steak","precio":"$1.37","origen":"Portugal"},
{"id":483,"nombre":"Table Cloth 90x90 Colour","precio":"$9.12","origen":"Argentina"},
{"id":484,"nombre":"Coffee - Irish Cream","precio":"$2.12","origen":"Peru"},
{"id":485,"nombre":"Sauce - Hollandaise","precio":"$9.05","origen":"Portugal"},
{"id":486,"nombre":"Cookies - Englishbay Oatmeal","precio":"$7.40","origen":"Portugal"},
{"id":487,"nombre":"Beef - Eye Of Round","precio":"$7.26","origen":"Peru"},
{"id":488,"nombre":"Flower - Commercial Spider","precio":"$7.06","origen":"Argentina"},
{"id":489,"nombre":"Syrup - Golden, Lyles","precio":"$6.30","origen":"Colombia"},
{"id":490,"nombre":"Wine - Red, Cabernet Sauvignon","precio":"$1.02","origen":"Portugal"},
{"id":491,"nombre":"Ecolab Digiclean Mild Fm","precio":"$6.72","origen":"Colombia"},
{"id":492,"nombre":"The Pop Shoppe - Grape","precio":"$2.59","origen":"Peru"},
{"id":493,"nombre":"Wine - Ruffino Chianti Classico","precio":"$1.46","origen":"Portugal"},
{"id":494,"nombre":"Clams - Littleneck, Whole","precio":"$4.35","origen":"Peru"},
{"id":495,"nombre":"Muffin Hinge 117n","precio":"$5.18","origen":"Peru"},
{"id":496,"nombre":"Bread - White, Unsliced","precio":"$6.76","origen":"Argentina"},
{"id":497,"nombre":"Pastry - Trippleberry Muffin - Mini","precio":"$8.50","origen":"Peru"},
{"id":498,"nombre":"Appetizer - Sausage Rolls","precio":"$8.83","origen":"Portugal"},
{"id":499,"nombre":"Champagne - Brights, Dry","precio":"$3.88","origen":"Mexico"},
{"id":500,"nombre":"Nestea - Iced Tea","precio":"$0.84","origen":"Peru"},
{"id":501,"nombre":"Sauce - Balsamic Viniagrette","precio":"$1.98","origen":"Colombia"},
{"id":502,"nombre":"Halibut - Fletches","precio":"$9.96","origen":"Portugal"},
{"id":503,"nombre":"Chocolate - Milk Coating","precio":"$5.61","origen":"Colombia"},
{"id":504,"nombre":"C - Plus, Orange","precio":"$0.83","origen":"Peru"},
{"id":505,"nombre":"Pork - Bones","precio":"$4.13","origen":"Argentina"},
{"id":506,"nombre":"Chips - Potato Jalapeno","precio":"$1.00","origen":"Argentina"},
{"id":507,"nombre":"Cookie - Oatmeal","precio":"$1.31","origen":"Spain"},
{"id":508,"nombre":"Lamb - Sausage Casings","precio":"$1.93","origen":"Colombia"},
{"id":509,"nombre":"Basil - Thai","precio":"$2.64","origen":"Argentina"},
{"id":510,"nombre":"Trueblue - Blueberry","precio":"$5.10","origen":"Argentina"},
{"id":511,"nombre":"Wine - Saint - Bris 2002, Sauv","precio":"$1.51","origen":"Argentina"},
{"id":512,"nombre":"Vol Au Vents","precio":"$6.72","origen":"Colombia"},
{"id":513,"nombre":"Mint - Fresh","precio":"$3.24","origen":"Peru"},
{"id":514,"nombre":"Sauce - Bernaise, Mix","precio":"$1.70","origen":"Argentina"},
{"id":515,"nombre":"Ice Cream - Vanilla","precio":"$6.50","origen":"Colombia"},
{"id":516,"nombre":"Bread - Petit Baguette","precio":"$0.05","origen":"Peru"},
{"id":517,"nombre":"Shark - Loin","precio":"$8.78","origen":"Spain"},
{"id":518,"nombre":"Longos - Chicken Cordon Bleu","precio":"$5.36","origen":"Portugal"},
{"id":519,"nombre":"Spring Roll Veg Mini","precio":"$7.49","origen":"Spain"},
{"id":520,"nombre":"Pumpkin - Seed","precio":"$5.58","origen":"Argentina"},
{"id":521,"nombre":"Vinegar - Cider","precio":"$1.55","origen":"Argentina"},
{"id":522,"nombre":"Wine - Magnotta - Pinot Gris Sr","precio":"$7.51","origen":"Argentina"},
{"id":523,"nombre":"Cherries - Bing, Canned","precio":"$4.88","origen":"Portugal"},
{"id":524,"nombre":"Nut - Pine Nuts, Whole","precio":"$4.25","origen":"Peru"},
{"id":525,"nombre":"Water - Spring 1.5lit","precio":"$5.93","origen":"Colombia"},
{"id":526,"nombre":"Sauce - Plum","precio":"$2.10","origen":"Peru"},
{"id":527,"nombre":"Petit Baguette","precio":"$9.96","origen":"Portugal"},
{"id":528,"nombre":"Cheese - Pied De Vents","precio":"$2.89","origen":"Portugal"},
{"id":529,"nombre":"Chicken - White Meat With Tender","precio":"$5.72","origen":"Portugal"},
{"id":530,"nombre":"Squash - Pattypan, Yellow","precio":"$4.36","origen":"Portugal"},
{"id":531,"nombre":"Chinese Foods - Chicken Wing","precio":"$7.41","origen":"Peru"},
{"id":532,"nombre":"Beef - Ox Tongue, Pickled","precio":"$7.50","origen":"Portugal"},
{"id":533,"nombre":"Veal - Eye Of Round","precio":"$0.02","origen":"Portugal"},
{"id":534,"nombre":"Wine - Marlbourough Sauv Blanc","precio":"$9.13","origen":"Portugal"},
{"id":535,"nombre":"Bread - Rye","precio":"$5.68","origen":"Mexico"},
{"id":536,"nombre":"Tahini Paste","precio":"$0.26","origen":"Portugal"},
{"id":537,"nombre":"Juice - Pineapple, 341 Ml","precio":"$5.84","origen":"Portugal"},
{"id":538,"nombre":"Blueberries","precio":"$6.68","origen":"Portugal"},
{"id":539,"nombre":"Jerusalem Artichoke","precio":"$6.81","origen":"Argentina"},
{"id":540,"nombre":"Lamb - Ground","precio":"$2.45","origen":"Portugal"},
{"id":541,"nombre":"Alize Sunset","precio":"$3.09","origen":"Portugal"},
{"id":542,"nombre":"Coffee - 10oz Cup 92961","precio":"$9.58","origen":"Portugal"},
{"id":543,"nombre":"Beef - Prime Rib Aaa","precio":"$5.42","origen":"Portugal"},
{"id":544,"nombre":"Gherkin - Sour","precio":"$1.78","origen":"Argentina"},
{"id":545,"nombre":"Devonshire Cream","precio":"$2.21","origen":"Portugal"},
{"id":546,"nombre":"Wine - Red, Concha Y Toro","precio":"$1.22","origen":"Argentina"},
{"id":547,"nombre":"Juice - Ocean Spray Kiwi","precio":"$2.33","origen":"Mexico"},
{"id":548,"nombre":"Calaloo","precio":"$3.89","origen":"Portugal"},
{"id":549,"nombre":"Scallops 60/80 Iqf","precio":"$6.43","origen":"Argentina"},
{"id":550,"nombre":"Pasta - Fusili Tri - Coloured","precio":"$5.61","origen":"Mexico"},
{"id":551,"nombre":"Sausage - Chorizo","precio":"$7.72","origen":"Portugal"},
{"id":552,"nombre":"Trueblue - Blueberry 12x473ml","precio":"$0.45","origen":"Mexico"},
{"id":553,"nombre":"Sprouts - Alfalfa","precio":"$0.19","origen":"Mexico"},
{"id":554,"nombre":"Sprouts - Alfalfa","precio":"$6.75","origen":"Peru"},
{"id":555,"nombre":"Salt And Pepper Mix - White","precio":"$7.03","origen":"Portugal"},
{"id":556,"nombre":"Cheese - Bakers Cream Cheese","precio":"$1.43","origen":"Mexico"},
{"id":557,"nombre":"Container - Clear 16 Oz","precio":"$1.01","origen":"Portugal"},
{"id":558,"nombre":"Shallots","precio":"$8.34","origen":"Portugal"},
{"id":559,"nombre":"Beef - Baby, Liver","precio":"$5.78","origen":"Portugal"},
{"id":560,"nombre":"Chicken - Bones","precio":"$5.19","origen":"Colombia"},
{"id":561,"nombre":"Poppy Seed","precio":"$6.66","origen":"Portugal"},
{"id":562,"nombre":"Campari","precio":"$7.17","origen":"Portugal"},
{"id":563,"nombre":"Gloves - Goldtouch Disposable","precio":"$7.67","origen":"Peru"},
{"id":564,"nombre":"Wine - Lou Black Shiraz","precio":"$8.37","origen":"Portugal"},
{"id":565,"nombre":"Cup - Paper 10oz 92959","precio":"$7.82","origen":"Portugal"},
{"id":566,"nombre":"Tarts Assorted","precio":"$6.01","origen":"Mexico"},
{"id":567,"nombre":"Foil - Round Foil","precio":"$0.69","origen":"Mexico"},
{"id":568,"nombre":"Fish - Halibut, Cold Smoked","precio":"$9.35","origen":"Portugal"},
{"id":569,"nombre":"Chocolate - Semi Sweet, Calets","precio":"$6.91","origen":"Portugal"},
{"id":570,"nombre":"Wine - Acient Coast Caberne","precio":"$3.69","origen":"Spain"},
{"id":571,"nombre":"Pepper - Green, Chili","precio":"$8.49","origen":"Mexico"},
{"id":572,"nombre":"Mcgillicuddy Vanilla Schnap","precio":"$3.77","origen":"Argentina"},
{"id":573,"nombre":"Garlic","precio":"$7.97","origen":"Argentina"},
{"id":574,"nombre":"Chef Hat 20cm","precio":"$9.05","origen":"Portugal"},
{"id":575,"nombre":"Tea Leaves - Oolong","precio":"$9.26","origen":"Mexico"},
{"id":576,"nombre":"Beer - Sleemans Cream Ale","precio":"$4.97","origen":"Argentina"},
{"id":577,"nombre":"Roe - Flying Fish","precio":"$0.27","origen":"Argentina"},
{"id":578,"nombre":"Beef - Eye Of Round","precio":"$8.78","origen":"Peru"},
{"id":579,"nombre":"Grapes - Black","precio":"$4.03","origen":"Peru"},
{"id":580,"nombre":"Bols Melon Liqueur","precio":"$0.70","origen":"Argentina"},
{"id":581,"nombre":"Appetizer - Seafood Assortment","precio":"$9.92","origen":"Colombia"},
{"id":582,"nombre":"Snails - Large Canned","precio":"$9.76","origen":"Peru"},
{"id":583,"nombre":"Cup - Paper 10oz 92959","precio":"$6.31","origen":"Portugal"},
{"id":584,"nombre":"Salad Dressing","precio":"$2.01","origen":"Colombia"},
{"id":585,"nombre":"Filling - Mince Meat","precio":"$5.12","origen":"Argentina"},
{"id":586,"nombre":"Amaretto","precio":"$1.57","origen":"Portugal"},
{"id":587,"nombre":"Pork - Bacon Cooked Slcd","precio":"$9.21","origen":"Mexico"},
{"id":588,"nombre":"Mangostein","precio":"$4.32","origen":"Argentina"},
{"id":589,"nombre":"Munchies Honey Sweet Trail Mix","precio":"$3.02","origen":"Argentina"},
{"id":590,"nombre":"Sugar - Fine","precio":"$1.50","origen":"Portugal"},
{"id":591,"nombre":"Soup - Campbells Tomato Ravioli","precio":"$1.72","origen":"Portugal"},
{"id":592,"nombre":"Pork - Backfat","precio":"$5.48","origen":"Colombia"},
{"id":593,"nombre":"Bread - Roll, Calabrese","precio":"$6.24","origen":"Portugal"},
{"id":594,"nombre":"Sole - Fillet","precio":"$0.92","origen":"Argentina"},
{"id":595,"nombre":"Wine - Sauvignon Blanc","precio":"$0.37","origen":"Portugal"},
{"id":596,"nombre":"Sausage - Breakfast","precio":"$0.08","origen":"Peru"},
{"id":597,"nombre":"Wine - White Cab Sauv.on","precio":"$4.71","origen":"Portugal"},
{"id":598,"nombre":"Juice - Apple, 1.36l","precio":"$5.11","origen":"Argentina"},
{"id":599,"nombre":"Lid - 0090 Clear","precio":"$5.62","origen":"Argentina"},
{"id":600,"nombre":"Green Scrubbie Pad H.duty","precio":"$6.47","origen":"Argentina"},
{"id":601,"nombre":"Soup - French Can Pea","precio":"$8.84","origen":"Peru"},
{"id":602,"nombre":"Butter - Unsalted","precio":"$4.75","origen":"Portugal"},
{"id":603,"nombre":"Energy Drink Bawls","precio":"$7.42","origen":"Portugal"},
{"id":604,"nombre":"Creme De Cacao Mcguines","precio":"$1.32","origen":"Mexico"},
{"id":605,"nombre":"Shichimi Togarashi Peppeers","precio":"$2.82","origen":"Portugal"},
{"id":606,"nombre":"Dawn Professionl Pot And Pan","precio":"$0.17","origen":"Portugal"},
{"id":607,"nombre":"Squid - U - 10 Thailand","precio":"$8.25","origen":"Peru"},
{"id":608,"nombre":"Eggplant Italian","precio":"$4.35","origen":"Portugal"},
{"id":609,"nombre":"Pineapple - Golden","precio":"$0.20","origen":"Portugal"},
{"id":610,"nombre":"Mustard - Individual Pkg","precio":"$7.28","origen":"Colombia"},
{"id":611,"nombre":"Apple - Custard","precio":"$9.98","origen":"Mexico"},
{"id":612,"nombre":"Pop Shoppe Cream Soda","precio":"$1.59","origen":"Spain"},
{"id":613,"nombre":"Pepper - Red Thai","precio":"$5.52","origen":"Colombia"},
{"id":614,"nombre":"True - Vue Containers","precio":"$7.90","origen":"Colombia"},
{"id":615,"nombre":"Basil - Pesto Sauce","precio":"$9.75","origen":"Portugal"},
{"id":616,"nombre":"Cherries - Bing, Canned","precio":"$3.79","origen":"Portugal"},
{"id":617,"nombre":"Cheese - Cambozola","precio":"$0.59","origen":"Portugal"},
{"id":618,"nombre":"Zucchini - Mini, Green","precio":"$8.99","origen":"Colombia"},
{"id":619,"nombre":"Wine - Tribal Sauvignon","precio":"$8.69","origen":"Colombia"},
{"id":620,"nombre":"Cloves - Whole","precio":"$1.14","origen":"Colombia"},
{"id":621,"nombre":"Chips Potato Salt Vinegar 43g","precio":"$9.01","origen":"Portugal"},
{"id":622,"nombre":"Swordfish Loin Portions","precio":"$9.49","origen":"Portugal"},
{"id":623,"nombre":"Squash - Guords","precio":"$4.47","origen":"Colombia"},
{"id":624,"nombre":"Muffin Hinge Container 6","precio":"$5.65","origen":"Peru"},
{"id":625,"nombre":"Beer - Rickards Red","precio":"$5.43","origen":"Mexico"},
{"id":626,"nombre":"Egg - Salad Premix","precio":"$9.95","origen":"Peru"},
{"id":627,"nombre":"Sausage - Blood Pudding","precio":"$1.27","origen":"Portugal"},
{"id":628,"nombre":"Pepper - Chillies, Crushed","precio":"$6.07","origen":"Portugal"},
{"id":629,"nombre":"Turkey Tenderloin Frozen","precio":"$5.99","origen":"Argentina"},
{"id":630,"nombre":"Bread - Roll, Canadian Dinner","precio":"$2.17","origen":"Portugal"},
{"id":631,"nombre":"Icecream - Dstk Strw Chseck","precio":"$1.31","origen":"Portugal"},
{"id":632,"nombre":"Shrimp - 16 - 20 Cooked, Peeled","precio":"$8.89","origen":"Mexico"},
{"id":633,"nombre":"Cheese - Brick With Onion","precio":"$7.61","origen":"Portugal"},
{"id":634,"nombre":"Cheese - Mozzarella, Buffalo","precio":"$4.45","origen":"Peru"},
{"id":635,"nombre":"The Pop Shoppe - Grape","precio":"$8.11","origen":"Portugal"},
{"id":636,"nombre":"Steamers White","precio":"$1.11","origen":"Portugal"},
{"id":637,"nombre":"Bread - White, Unsliced","precio":"$4.66","origen":"Mexico"},
{"id":638,"nombre":"Lemonade - Black Cherry, 591 Ml","precio":"$5.98","origen":"Peru"},
{"id":639,"nombre":"Marjoram - Fresh","precio":"$5.95","origen":"Colombia"},
{"id":640,"nombre":"Grapes - Green","precio":"$3.76","origen":"Portugal"},
{"id":641,"nombre":"Sping Loaded Cup Dispenser","precio":"$9.93","origen":"Portugal"},
{"id":642,"nombre":"Goat - Whole Cut","precio":"$9.74","origen":"Argentina"},
{"id":643,"nombre":"Cake - Pancake","precio":"$3.00","origen":"Colombia"},
{"id":644,"nombre":"Cookie Dough - Chunky","precio":"$5.81","origen":"Portugal"},
{"id":645,"nombre":"Tomato - Tricolor Cherry","precio":"$3.06","origen":"Peru"},
{"id":646,"nombre":"Beef - Ox Tail, Frozen","precio":"$6.56","origen":"Colombia"},
{"id":647,"nombre":"Lamb - Pieces, Diced","precio":"$5.52","origen":"Colombia"},
{"id":648,"nombre":"Banana - Leaves","precio":"$3.93","origen":"Mexico"},
{"id":649,"nombre":"Chinese Foods - Plain Fried Rice","precio":"$4.82","origen":"Argentina"},
{"id":650,"nombre":"Chickhen - Chicken Phyllo","precio":"$2.39","origen":"Peru"},
{"id":651,"nombre":"Godiva White Chocolate","precio":"$5.33","origen":"Peru"},
{"id":652,"nombre":"Vinegar - Champagne","precio":"$8.60","origen":"Argentina"},
{"id":653,"nombre":"Jicama","precio":"$3.46","origen":"Portugal"},
{"id":654,"nombre":"Oil - Canola","precio":"$7.97","origen":"Portugal"},
{"id":655,"nombre":"Cucumber - Pickling Ontario","precio":"$2.27","origen":"Colombia"},
{"id":656,"nombre":"Juice - Lemon","precio":"$2.34","origen":"Colombia"},
{"id":657,"nombre":"Tofu - Firm","precio":"$4.38","origen":"Portugal"},
{"id":658,"nombre":"Chicken - Bones","precio":"$4.52","origen":"Mexico"},
{"id":659,"nombre":"Tea - Herbal Orange Spice","precio":"$5.93","origen":"Portugal"},
{"id":660,"nombre":"Mustard - Seed","precio":"$2.71","origen":"Mexico"},
{"id":661,"nombre":"Rice - Long Grain","precio":"$9.50","origen":"Portugal"},
{"id":662,"nombre":"Soup - Campbells Pasta Fagioli","precio":"$5.07","origen":"Peru"},
{"id":663,"nombre":"Dried Cranberries","precio":"$8.44","origen":"Colombia"},
{"id":664,"nombre":"Rye Special Old","precio":"$0.15","origen":"Colombia"},
{"id":665,"nombre":"Pickles - Gherkins","precio":"$5.44","origen":"Peru"},
{"id":666,"nombre":"True - Vue Containers","precio":"$8.28","origen":"Peru"},
{"id":667,"nombre":"Soup - Campbells, Minestrone","precio":"$0.69","origen":"Argentina"},
{"id":668,"nombre":"Lady Fingers","precio":"$1.46","origen":"Colombia"},
{"id":669,"nombre":"Chinese Foods - Chicken Wing","precio":"$8.92","origen":"Colombia"},
{"id":670,"nombre":"Onions - White","precio":"$0.30","origen":"Peru"},
{"id":671,"nombre":"Wine - Rioja Campo Viejo","precio":"$9.75","origen":"Argentina"},
{"id":672,"nombre":"Nectarines","precio":"$9.26","origen":"Portugal"},
{"id":673,"nombre":"Lamb - Leg, Boneless","precio":"$2.84","origen":"Spain"},
{"id":674,"nombre":"Wine - Lamancha Do Crianza","precio":"$2.91","origen":"Spain"},
{"id":675,"nombre":"Salmon - Atlantic, Skin On","precio":"$8.02","origen":"Peru"},
{"id":676,"nombre":"Couscous","precio":"$1.36","origen":"Peru"},
{"id":677,"nombre":"Lemonade - Pineapple Passion","precio":"$8.68","origen":"Peru"},
{"id":678,"nombre":"Longos - Grilled Veg Sandwiches","precio":"$5.13","origen":"Colombia"},
{"id":679,"nombre":"Cheese - Taleggio D.o.p.","precio":"$0.47","origen":"Peru"},
{"id":680,"nombre":"Duck - Legs","precio":"$3.42","origen":"Peru"},
{"id":681,"nombre":"Veal - Chops, Split, Frenched","precio":"$6.81","origen":"Portugal"},
{"id":682,"nombre":"Sausage - Meat","precio":"$6.53","origen":"Argentina"},
{"id":683,"nombre":"Table Cloth - 53x69 Colour","precio":"$2.79","origen":"Spain"},
{"id":684,"nombre":"Rice - Aborio","precio":"$8.31","origen":"Portugal"},
{"id":685,"nombre":"Beer - Upper Canada Lager","precio":"$4.14","origen":"Mexico"},
{"id":686,"nombre":"Schnappes Peppermint - Walker","precio":"$3.43","origen":"Mexico"},
{"id":687,"nombre":"Skirt - 29 Foot","precio":"$6.63","origen":"Peru"},
{"id":688,"nombre":"Wine - Zonnebloem Pinotage","precio":"$4.01","origen":"Portugal"},
{"id":689,"nombre":"Soup - French Can Pea","precio":"$4.04","origen":"Portugal"},
{"id":690,"nombre":"Cake - Cheese Cake 9 Inch","precio":"$8.62","origen":"Colombia"},
{"id":691,"nombre":"Mudslide","precio":"$2.11","origen":"Portugal"},
{"id":692,"nombre":"Chicken - Base","precio":"$8.63","origen":"Argentina"},
{"id":693,"nombre":"Island Oasis - Strawberry","precio":"$9.72","origen":"Mexico"},
{"id":694,"nombre":"Kahlua","precio":"$9.43","origen":"Mexico"},
{"id":695,"nombre":"Tea - Herbal Sweet Dreams","precio":"$3.14","origen":"Portugal"},
{"id":696,"nombre":"Apple - Delicious, Golden","precio":"$5.14","origen":"Argentina"},
{"id":697,"nombre":"Sugar - Brown, Individual","precio":"$4.94","origen":"Colombia"},
{"id":698,"nombre":"Lamb - Loin Chops","precio":"$4.24","origen":"Portugal"},
{"id":699,"nombre":"Juice - Apple, 341 Ml","precio":"$2.22","origen":"Colombia"},
{"id":700,"nombre":"Walkers Special Old Whiskey","precio":"$2.22","origen":"Portugal"},
{"id":701,"nombre":"Tea - Vanilla Chai","precio":"$7.40","origen":"Colombia"},
{"id":702,"nombre":"Juice - Orange","precio":"$8.64","origen":"Portugal"},
{"id":703,"nombre":"Sage Derby","precio":"$6.58","origen":"Colombia"},
{"id":704,"nombre":"Bread - Corn Muffaletta","precio":"$2.41","origen":"Portugal"},
{"id":705,"nombre":"Samosa - Veg","precio":"$6.70","origen":"Argentina"},
{"id":706,"nombre":"Pork - Loin, Center Cut","precio":"$4.83","origen":"Peru"},
{"id":707,"nombre":"Barley - Pearl","precio":"$5.72","origen":"Peru"},
{"id":708,"nombre":"Crab - Imitation Flakes","precio":"$3.78","origen":"Portugal"},
{"id":709,"nombre":"Bread - Rolls, Rye","precio":"$7.83","origen":"Uruguay"},
{"id":710,"nombre":"Wine - White, Ej","precio":"$7.51","origen":"Spain"},
{"id":711,"nombre":"Veal - Heart","precio":"$8.67","origen":"Portugal"},
{"id":712,"nombre":"Bay Leaf","precio":"$8.35","origen":"Portugal"},
{"id":713,"nombre":"Kumquat","precio":"$3.51","origen":"Portugal"},
{"id":714,"nombre":"Kellogs Raisan Bran Bars","precio":"$0.95","origen":"Portugal"},
{"id":715,"nombre":"Foil - Round Foil","precio":"$3.31","origen":"Colombia"},
{"id":716,"nombre":"Longos - Burritos","precio":"$1.29","origen":"Mexico"},
{"id":717,"nombre":"Beer - Steamwhistle","precio":"$8.74","origen":"Argentina"},
{"id":718,"nombre":"Lamb Shoulder Boneless Nz","precio":"$6.03","origen":"Mexico"},
{"id":719,"nombre":"Triple Sec - Mcguinness","precio":"$8.09","origen":"Mexico"},
{"id":720,"nombre":"Wine - Segura Viudas Aria Brut","precio":"$6.14","origen":"Uruguay"},
{"id":721,"nombre":"Oxtail - Cut","precio":"$2.13","origen":"Colombia"},
{"id":722,"nombre":"Vermouth - White, Cinzano","precio":"$7.85","origen":"Peru"},
{"id":723,"nombre":"Corn - Mini","precio":"$2.73","origen":"Argentina"},
{"id":724,"nombre":"Sesame Seed","precio":"$2.21","origen":"Portugal"},
{"id":725,"nombre":"Wine - Chardonnay South","precio":"$9.56","origen":"Portugal"},
{"id":726,"nombre":"Steel Wool","precio":"$0.68","origen":"Peru"},
{"id":727,"nombre":"Galliano","precio":"$8.17","origen":"Portugal"},
{"id":728,"nombre":"Appetizer - Asian Shrimp Roll","precio":"$5.59","origen":"Colombia"},
{"id":729,"nombre":"Coffee - Egg Nog Capuccino","precio":"$4.50","origen":"Mexico"},
{"id":730,"nombre":"Flower - Carnations","precio":"$2.50","origen":"Argentina"},
{"id":731,"nombre":"Icecream - Dstk Strw Chseck","precio":"$0.55","origen":"Mexico"},
{"id":732,"nombre":"Chives - Fresh","precio":"$7.01","origen":"Portugal"},
{"id":733,"nombre":"Pork - Back, Long Cut, Boneless","precio":"$2.63","origen":"Portugal"},
{"id":734,"nombre":"Flax Seed","precio":"$5.77","origen":"Uruguay"},
{"id":735,"nombre":"Beef - Texas Style Burger","precio":"$7.10","origen":"Argentina"},
{"id":736,"nombre":"Pepsi - 600ml","precio":"$2.78","origen":"Portugal"},
{"id":737,"nombre":"Crab - Meat Combo","precio":"$9.05","origen":"Portugal"},
{"id":738,"nombre":"Oats Large Flake","precio":"$4.71","origen":"Argentina"},
{"id":739,"nombre":"Blueberries - Frozen","precio":"$4.70","origen":"Portugal"},
{"id":740,"nombre":"Cake - Miini Cheesecake Cherry","precio":"$9.59","origen":"Peru"},
{"id":741,"nombre":"Crab Brie In Phyllo","precio":"$1.13","origen":"Mexico"},
{"id":742,"nombre":"Beer - Paulaner Hefeweisse","precio":"$9.48","origen":"Spain"},
{"id":743,"nombre":"Coriander - Seed","precio":"$2.93","origen":"Argentina"},
{"id":744,"nombre":"Wine - Magnotta - Cab Franc","precio":"$6.60","origen":"Peru"},
{"id":745,"nombre":"Dried Cranberries","precio":"$5.52","origen":"Mexico"},
{"id":746,"nombre":"Chocolate - Pistoles, White","precio":"$0.52","origen":"Portugal"},
{"id":747,"nombre":"Tart - Pecan Butter Squares","precio":"$7.44","origen":"Portugal"},
{"id":748,"nombre":"Juice - V8 Splash","precio":"$2.36","origen":"Portugal"},
{"id":749,"nombre":"Wine - Wyndham Estate Bin 777","precio":"$5.98","origen":"Portugal"},
{"id":750,"nombre":"Longan","precio":"$2.39","origen":"Portugal"},
{"id":751,"nombre":"Sping Loaded Cup Dispenser","precio":"$3.33","origen":"Mexico"},
{"id":752,"nombre":"Pork - Bacon Cooked Slcd","precio":"$0.22","origen":"Mexico"},
{"id":753,"nombre":"Milk - 2%","precio":"$3.09","origen":"Peru"},
{"id":754,"nombre":"Dawn Professionl Pot And Pan","precio":"$2.51","origen":"Colombia"},
{"id":755,"nombre":"Jam - Apricot","precio":"$0.04","origen":"Argentina"},
{"id":756,"nombre":"Wine - Gewurztraminer Pierre","precio":"$4.90","origen":"Portugal"},
{"id":757,"nombre":"Beef - Top Butt Aaa","precio":"$4.97","origen":"Mexico"},
{"id":758,"nombre":"Chocolate - Milk","precio":"$1.80","origen":"Portugal"},
{"id":759,"nombre":"Flavouring - Raspberry","precio":"$7.12","origen":"Argentina"},
{"id":760,"nombre":"Pastry - Apple Large","precio":"$2.45","origen":"Colombia"},
{"id":761,"nombre":"Loaf Pan - 2 Lb, Foil","precio":"$5.20","origen":"Mexico"},
{"id":762,"nombre":"Turnip - White","precio":"$9.70","origen":"Colombia"},
{"id":763,"nombre":"Jam - Strawberry, 20 Ml Jar","precio":"$2.38","origen":"Peru"},
{"id":764,"nombre":"Table Cloth 81x81 Colour","precio":"$3.70","origen":"Colombia"},
{"id":765,"nombre":"Turkey - Breast, Boneless Sk On","precio":"$2.23","origen":"Portugal"},
{"id":766,"nombre":"Bread - Hot Dog Buns","precio":"$8.27","origen":"Mexico"},
{"id":767,"nombre":"Bread - Calabrese Baguette","precio":"$2.96","origen":"Peru"},
{"id":768,"nombre":"Tray - 12in Rnd Blk","precio":"$2.62","origen":"Colombia"},
{"id":769,"nombre":"Lettuce - Romaine","precio":"$3.71","origen":"Portugal"},
{"id":770,"nombre":"Swordfish Loin Portions","precio":"$9.26","origen":"Portugal"},
{"id":771,"nombre":"Potatoes - Mini Red","precio":"$8.32","origen":"Portugal"},
{"id":772,"nombre":"Salt And Pepper Mix - Black","precio":"$3.61","origen":"Argentina"},
{"id":773,"nombre":"Eggroll","precio":"$8.53","origen":"Portugal"},
{"id":774,"nombre":"Pepper - Black, Crushed","precio":"$9.62","origen":"Mexico"},
{"id":775,"nombre":"Irish Cream - Butterscotch","precio":"$2.37","origen":"Portugal"},
{"id":776,"nombre":"White Fish - Filets","precio":"$8.53","origen":"Portugal"},
{"id":777,"nombre":"Easy Off Oven Cleaner","precio":"$4.91","origen":"Argentina"},
{"id":778,"nombre":"Brocolinni - Gaylan, Chinese","precio":"$6.03","origen":"Portugal"},
{"id":779,"nombre":"Wine - White, Ej Gallo","precio":"$1.15","origen":"Portugal"},
{"id":780,"nombre":"Lamb - Rack","precio":"$8.50","origen":"Portugal"},
{"id":781,"nombre":"Wine - White, Mosel Gold","precio":"$2.52","origen":"Peru"},
{"id":782,"nombre":"Red Cod Fillets - 225g","precio":"$7.78","origen":"Portugal"},
{"id":783,"nombre":"Tea - Green","precio":"$8.38","origen":"Argentina"},
{"id":784,"nombre":"Coffee - French Vanilla Frothy","precio":"$3.99","origen":"Argentina"},
{"id":785,"nombre":"Cup - 3.5oz, Foam","precio":"$4.45","origen":"Portugal"},
{"id":786,"nombre":"Rappini - Andy Boy","precio":"$0.25","origen":"Colombia"},
{"id":787,"nombre":"Nestea - Ice Tea, Diet","precio":"$3.86","origen":"Colombia"},
{"id":788,"nombre":"Pork - Ham Hocks - Smoked","precio":"$2.25","origen":"Peru"},
{"id":789,"nombre":"Wine - Winzer Krems Gruner","precio":"$8.63","origen":"Portugal"},
{"id":790,"nombre":"Milk - Homo","precio":"$8.01","origen":"Uruguay"},
{"id":791,"nombre":"Chinese Foods - Chicken","precio":"$0.13","origen":"Portugal"},
{"id":792,"nombre":"Ice Cream Bar - Rolo Cone","precio":"$0.16","origen":"Portugal"},
{"id":793,"nombre":"Jack Daniels","precio":"$2.82","origen":"Argentina"},
{"id":794,"nombre":"Capon - Breast, Wing On","precio":"$3.67","origen":"Colombia"},
{"id":795,"nombre":"Squid - Breaded","precio":"$9.21","origen":"Argentina"},
{"id":796,"nombre":"Flour - Masa De Harina Mexican","precio":"$5.69","origen":"Argentina"},
{"id":797,"nombre":"Wine - Lou Black Shiraz","precio":"$7.61","origen":"Peru"},
{"id":798,"nombre":"Beef - Prime Rib Aaa","precio":"$7.35","origen":"Portugal"},
{"id":799,"nombre":"Mushroom - Morels, Dry","precio":"$7.01","origen":"Portugal"},
{"id":800,"nombre":"Chicken Giblets","precio":"$2.24","origen":"Portugal"},
{"id":801,"nombre":"Wine - Casillero Del Diablo","precio":"$2.25","origen":"Peru"},
{"id":802,"nombre":"Roe - Lump Fish, Black","precio":"$2.33","origen":"Portugal"},
{"id":803,"nombre":"Pepper - Red, Finger Hot","precio":"$6.55","origen":"Portugal"},
{"id":804,"nombre":"Soup - French Onion, Dry","precio":"$0.50","origen":"Portugal"},
{"id":805,"nombre":"Juice - Mango","precio":"$3.47","origen":"Peru"},
{"id":806,"nombre":"Rum - Cream, Amarula","precio":"$6.76","origen":"Portugal"},
{"id":807,"nombre":"Rice - Jasmine Sented","precio":"$6.68","origen":"Portugal"},
{"id":808,"nombre":"Wine La Vielle Ferme Cote Du","precio":"$7.46","origen":"Mexico"},
{"id":809,"nombre":"Cut Wakame - Hanawakaba","precio":"$3.64","origen":"Mexico"},
{"id":810,"nombre":"Cheese - Valancey","precio":"$7.39","origen":"Portugal"},
{"id":811,"nombre":"Beans - Butter Lrg Lima","precio":"$7.58","origen":"Portugal"},
{"id":812,"nombre":"Wine - Zinfandel Rosenblum","precio":"$6.64","origen":"Argentina"},
{"id":813,"nombre":"Nut - Chestnuts, Whole","precio":"$8.32","origen":"Portugal"},
{"id":814,"nombre":"Tomatoes - Grape","precio":"$0.68","origen":"Peru"},
{"id":815,"nombre":"Vinegar - White","precio":"$2.80","origen":"Argentina"},
{"id":816,"nombre":"Gatorade - Orange","precio":"$9.76","origen":"Colombia"},
{"id":817,"nombre":"Halibut - Whole, Fresh","precio":"$7.56","origen":"Argentina"},
{"id":818,"nombre":"Currants","precio":"$0.85","origen":"Portugal"},
{"id":819,"nombre":"Wine - Alsace Riesling Reserve","precio":"$7.90","origen":"Peru"},
{"id":820,"nombre":"Lentils - Red, Dry","precio":"$7.16","origen":"Mexico"},
{"id":821,"nombre":"Corn Meal","precio":"$1.34","origen":"Peru"},
{"id":822,"nombre":"Soup - Campbells Chili","precio":"$6.65","origen":"Argentina"},
{"id":823,"nombre":"Veal - Chops, Split, Frenched","precio":"$4.68","origen":"Colombia"},
{"id":824,"nombre":"Syrup - Monin - Granny Smith","precio":"$2.89","origen":"Portugal"},
{"id":825,"nombre":"Watercress","precio":"$4.41","origen":"Argentina"},
{"id":826,"nombre":"Melon - Honey Dew","precio":"$0.39","origen":"Colombia"},
{"id":827,"nombre":"Cream - 10%","precio":"$2.44","origen":"Portugal"},
{"id":828,"nombre":"Pail With Metal Handle 16l White","precio":"$5.60","origen":"Portugal"},
{"id":829,"nombre":"Split Peas - Green, Dry","precio":"$0.86","origen":"Portugal"},
{"id":830,"nombre":"Petit Baguette","precio":"$1.62","origen":"Peru"},
{"id":831,"nombre":"Cheese - Swiss","precio":"$7.69","origen":"Portugal"},
{"id":832,"nombre":"Tomato Puree","precio":"$1.57","origen":"Portugal"},
{"id":833,"nombre":"Wine - Pinot Noir Latour","precio":"$8.55","origen":"Portugal"},
{"id":834,"nombre":"Beer - Creemore","precio":"$8.48","origen":"Argentina"},
{"id":835,"nombre":"Salmon - Sockeye Raw","precio":"$2.91","origen":"Mexico"},
{"id":836,"nombre":"Cheese - Ricotta","precio":"$9.61","origen":"Portugal"},
{"id":837,"nombre":"Mortadella","precio":"$0.36","origen":"Portugal"},
{"id":838,"nombre":"Vinegar - Tarragon","precio":"$9.17","origen":"Mexico"},
{"id":839,"nombre":"Roe - White Fish","precio":"$5.27","origen":"Argentina"},
{"id":840,"nombre":"Capers - Pickled","precio":"$3.10","origen":"Spain"},
{"id":841,"nombre":"Coffee - Colombian, Portioned","precio":"$6.66","origen":"Colombia"},
{"id":842,"nombre":"Lobster - Tail, 3 - 4 Oz","precio":"$9.51","origen":"Portugal"},
{"id":843,"nombre":"Mints - Striped Red","precio":"$1.43","origen":"Portugal"},
{"id":844,"nombre":"Shrimp - 100 / 200 Cold Water","precio":"$9.47","origen":"Mexico"},
{"id":845,"nombre":"Carbonated Water - Cherry","precio":"$4.41","origen":"Mexico"},
{"id":846,"nombre":"Wine - Sauvignon Blanc","precio":"$6.68","origen":"Peru"},
{"id":847,"nombre":"Table Cloth 62x114 White","precio":"$5.85","origen":"Argentina"},
{"id":848,"nombre":"Salmon - Sockeye Raw","precio":"$7.84","origen":"Colombia"},
{"id":849,"nombre":"Chips - Doritos","precio":"$1.88","origen":"Peru"},
{"id":850,"nombre":"Nantucket - 518ml","precio":"$0.82","origen":"Mexico"},
{"id":851,"nombre":"Cod - Black Whole Fillet","precio":"$1.08","origen":"Portugal"},
{"id":852,"nombre":"Muffin - Mix - Creme Brule 15l","precio":"$7.55","origen":"Portugal"},
{"id":853,"nombre":"Bread - Assorted Rolls","precio":"$9.06","origen":"Portugal"},
{"id":854,"nombre":"Wine - Domaine Boyar Royal","precio":"$0.25","origen":"Mexico"},
{"id":855,"nombre":"Spice - Pepper Portions","precio":"$4.42","origen":"Argentina"},
{"id":856,"nombre":"Propel Sport Drink","precio":"$3.92","origen":"Portugal"},
{"id":857,"nombre":"Chocolate - Pistoles, White","precio":"$7.65","origen":"Peru"},
{"id":858,"nombre":"Soup - Campbells Beef Strogonoff","precio":"$9.92","origen":"Portugal"},
{"id":859,"nombre":"Sproutsmustard Cress","precio":"$6.02","origen":"Colombia"},
{"id":860,"nombre":"Crab - Meat Combo","precio":"$1.27","origen":"Argentina"},
{"id":861,"nombre":"Bread - Bistro White","precio":"$5.05","origen":"Portugal"},
{"id":862,"nombre":"Beef - Prime Rib Aaa","precio":"$0.80","origen":"Portugal"},
{"id":863,"nombre":"Lemons","precio":"$2.84","origen":"Mexico"},
{"id":864,"nombre":"V8 Splash Strawberry Banana","precio":"$4.49","origen":"Peru"},
{"id":865,"nombre":"Muffin Chocolate Individual Wrap","precio":"$3.42","origen":"Spain"},
{"id":866,"nombre":"Carrots - Jumbo","precio":"$9.27","origen":"Colombia"},
{"id":867,"nombre":"Pastry - Baked Scones - Mini","precio":"$3.97","origen":"Spain"},
{"id":868,"nombre":"Eggplant Italian","precio":"$3.75","origen":"Peru"},
{"id":869,"nombre":"Split Peas - Green, Dry","precio":"$6.93","origen":"Spain"},
{"id":870,"nombre":"Carbonated Water - Wildberry","precio":"$2.18","origen":"Colombia"},
{"id":871,"nombre":"Chocolate - Milk, Callets","precio":"$2.10","origen":"Argentina"},
{"id":872,"nombre":"Muskox - French Rack","precio":"$5.40","origen":"Mexico"},
{"id":873,"nombre":"Wiberg Cure","precio":"$6.52","origen":"Portugal"},
{"id":874,"nombre":"Apricots - Dried","precio":"$5.24","origen":"Spain"},
{"id":875,"nombre":"Juice - Orange, 341 Ml","precio":"$7.24","origen":"Colombia"},
{"id":876,"nombre":"Sauce - Oyster","precio":"$3.07","origen":"Mexico"},
{"id":877,"nombre":"Chilli Paste, Sambal Oelek","precio":"$0.55","origen":"Mexico"},
{"id":878,"nombre":"Wine - Balbach Riverside","precio":"$7.91","origen":"Peru"},
{"id":879,"nombre":"Tart - Pecan Butter Squares","precio":"$6.73","origen":"Argentina"},
{"id":880,"nombre":"Vaccum Bag - 14x20","precio":"$8.07","origen":"Portugal"},
{"id":881,"nombre":"Bread - Frozen Basket Variety","precio":"$4.70","origen":"Colombia"},
{"id":882,"nombre":"Sprouts - Pea","precio":"$8.31","origen":"Portugal"},
{"id":883,"nombre":"Gatorade - Fruit Punch","precio":"$3.49","origen":"Mexico"},
{"id":884,"nombre":"Garam Marsala","precio":"$1.04","origen":"Portugal"},
{"id":885,"nombre":"Wine - Rubyport","precio":"$9.81","origen":"Colombia"},
{"id":886,"nombre":"Plastic Arrow Stir Stick","precio":"$2.65","origen":"Portugal"},
{"id":887,"nombre":"Sauce - White, Mix","precio":"$8.82","origen":"Portugal"},
{"id":888,"nombre":"Basil - Primerba, Paste","precio":"$4.34","origen":"Colombia"},
{"id":889,"nombre":"Table Cloth 53x53 White","precio":"$4.99","origen":"Portugal"},
{"id":890,"nombre":"Juice - Lime","precio":"$8.34","origen":"Peru"},
{"id":891,"nombre":"Beef - Top Butt Aaa","precio":"$2.15","origen":"Portugal"},
{"id":892,"nombre":"Bread - Assorted Rolls","precio":"$1.90","origen":"Colombia"},
{"id":893,"nombre":"Wiberg Super Cure","precio":"$7.15","origen":"Portugal"},
{"id":894,"nombre":"Pastry - Key Limepoppy Seed Tea","precio":"$8.65","origen":"Peru"},
{"id":895,"nombre":"Puree - Strawberry","precio":"$2.14","origen":"Argentina"},
{"id":896,"nombre":"Wine - Valpolicella Masi","precio":"$4.81","origen":"Portugal"},
{"id":897,"nombre":"Wood Chips - Regular","precio":"$6.97","origen":"Mexico"},
{"id":898,"nombre":"Bread Base - Gold Formel","precio":"$5.66","origen":"Colombia"},
{"id":899,"nombre":"Crush - Orange, 355ml","precio":"$8.67","origen":"Peru"},
{"id":900,"nombre":"Capers - Pickled","precio":"$8.52","origen":"Argentina"},
{"id":901,"nombre":"Onions - Cooking","precio":"$4.71","origen":"Colombia"},
{"id":902,"nombre":"Eggplant Oriental","precio":"$4.75","origen":"Colombia"},
{"id":903,"nombre":"Cheese - Mozzarella","precio":"$9.90","origen":"Argentina"},
{"id":904,"nombre":"Spice - Pepper Portions","precio":"$3.59","origen":"Argentina"},
{"id":905,"nombre":"Pickles - Gherkins","precio":"$3.83","origen":"Argentina"},
{"id":906,"nombre":"Carrots - Mini, Stem On","precio":"$1.39","origen":"Portugal"},
{"id":907,"nombre":"Tomatoes - Vine Ripe, Red","precio":"$2.24","origen":"Peru"},
{"id":908,"nombre":"Mop Head - Cotton, 24 Oz","precio":"$6.19","origen":"Mexico"},
{"id":909,"nombre":"Oil - Safflower","precio":"$7.17","origen":"Mexico"},
{"id":910,"nombre":"Basil - Dry, Rubbed","precio":"$3.79","origen":"Spain"},
{"id":911,"nombre":"Scallops - In Shell","precio":"$8.37","origen":"Portugal"},
{"id":912,"nombre":"Wine - Fino Tio Pepe Gonzalez","precio":"$6.13","origen":"Portugal"},
{"id":913,"nombre":"Curry Powder Madras","precio":"$0.67","origen":"Peru"},
{"id":914,"nombre":"Glass - Juice Clear 5oz 55005","precio":"$2.17","origen":"Peru"},
{"id":915,"nombre":"Cake - Box Window 10x10x2.5","precio":"$1.11","origen":"Portugal"},
{"id":916,"nombre":"Propel Sport Drink","precio":"$9.46","origen":"Argentina"},
{"id":917,"nombre":"Coconut Milk - Unsweetened","precio":"$9.66","origen":"Peru"},
{"id":918,"nombre":"Coffee - Decafenated","precio":"$0.82","origen":"Argentina"},
{"id":919,"nombre":"Lettuce - Romaine","precio":"$0.85","origen":"Argentina"},
{"id":920,"nombre":"Mousse - Banana Chocolate","precio":"$1.97","origen":"Mexico"},
{"id":921,"nombre":"Juice - Cranberry, 341 Ml","precio":"$6.85","origen":"Portugal"},
{"id":922,"nombre":"Compound - Mocha","precio":"$9.96","origen":"Portugal"},
{"id":923,"nombre":"Food Colouring - Orange","precio":"$9.54","origen":"Portugal"},
{"id":924,"nombre":"Lettuce - Mini Greens, Whole","precio":"$5.35","origen":"Portugal"},
{"id":925,"nombre":"Wine - Remy Pannier Rose","precio":"$0.10","origen":"Portugal"},
{"id":926,"nombre":"Chips - Assorted","precio":"$9.68","origen":"Portugal"},
{"id":927,"nombre":"Cheese Cheddar Processed","precio":"$8.25","origen":"Peru"},
{"id":928,"nombre":"Nantucket - Carrot Orange","precio":"$9.19","origen":"Colombia"},
{"id":929,"nombre":"Flour - Whole Wheat","precio":"$3.33","origen":"Colombia"},
{"id":930,"nombre":"Sherry - Dry","precio":"$9.84","origen":"Mexico"},
{"id":931,"nombre":"Soup Campbells Split Pea And Ham","precio":"$2.19","origen":"Portugal"},
{"id":932,"nombre":"Broccoli - Fresh","precio":"$8.38","origen":"Portugal"},
{"id":933,"nombre":"Salmon Steak - Cohoe 8 Oz","precio":"$5.73","origen":"Mexico"},
{"id":934,"nombre":"Sour Puss Sour Apple","precio":"$9.27","origen":"Peru"},
{"id":935,"nombre":"Lettuce - Romaine, Heart","precio":"$6.35","origen":"Colombia"},
{"id":936,"nombre":"Sesame Seed","precio":"$3.06","origen":"Colombia"},
{"id":937,"nombre":"Cheese - Bocconcini","precio":"$3.90","origen":"Colombia"},
{"id":938,"nombre":"Steamers White","precio":"$2.42","origen":"Portugal"},
{"id":939,"nombre":"Beef - Eye Of Round","precio":"$4.09","origen":"Portugal"},
{"id":940,"nombre":"Pineapple - Canned, Rings","precio":"$1.51","origen":"Mexico"},
{"id":941,"nombre":"Flavouring - Orange","precio":"$6.63","origen":"Mexico"},
{"id":942,"nombre":"Food Colouring - Red","precio":"$2.57","origen":"Portugal"},
{"id":943,"nombre":"Melon - Watermelon Yellow","precio":"$8.34","origen":"Peru"},
{"id":944,"nombre":"Vodka - Lemon, Absolut","precio":"$5.73","origen":"Mexico"},
{"id":945,"nombre":"Kiwano","precio":"$4.55","origen":"Portugal"},
{"id":946,"nombre":"Coffee - Almond Amaretto","precio":"$3.62","origen":"Mexico"},
{"id":947,"nombre":"Shrimp - Black Tiger 13/15","precio":"$6.55","origen":"Argentina"},
{"id":948,"nombre":"Cabbage - Red","precio":"$6.86","origen":"Mexico"},
{"id":949,"nombre":"Pasta - Orecchiette","precio":"$2.40","origen":"Portugal"},
{"id":950,"nombre":"Island Oasis - Mango Daiquiri","precio":"$1.85","origen":"Portugal"},
{"id":951,"nombre":"Sachet","precio":"$3.89","origen":"Portugal"},
{"id":952,"nombre":"Chilli Paste, Sambal Oelek","precio":"$4.16","origen":"Portugal"},
{"id":953,"nombre":"Kale - Red","precio":"$8.99","origen":"Peru"},
{"id":954,"nombre":"Lamb - Ground","precio":"$4.50","origen":"Peru"},
{"id":955,"nombre":"Food Colouring - Pink","precio":"$4.68","origen":"Argentina"},
{"id":956,"nombre":"Cocoa Powder - Dutched","precio":"$7.73","origen":"Peru"},
{"id":957,"nombre":"Yoplait Drink","precio":"$8.50","origen":"Colombia"},
{"id":958,"nombre":"Yeast Dry - Fleischman","precio":"$2.72","origen":"Colombia"},
{"id":959,"nombre":"Oil - Olive Bertolli","precio":"$3.47","origen":"Argentina"},
{"id":960,"nombre":"Wine - Ruffino Chianti Classico","precio":"$5.33","origen":"Colombia"},
{"id":961,"nombre":"Cup - 3.5oz, Foam","precio":"$1.02","origen":"Colombia"},
{"id":962,"nombre":"Energy Drink - Redbull 355ml","precio":"$2.21","origen":"Mexico"},
{"id":963,"nombre":"Juice - Propel Sport","precio":"$0.27","origen":"Peru"},
{"id":964,"nombre":"Calypso - Black Cherry Lemonade","precio":"$6.96","origen":"Colombia"},
{"id":965,"nombre":"Wine - Merlot Vina Carmen","precio":"$2.51","origen":"Argentina"},
{"id":966,"nombre":"Wine - Maipo Valle Cabernet","precio":"$8.98","origen":"Argentina"},
{"id":967,"nombre":"Chinese Foods - Chicken","precio":"$8.45","origen":"Peru"},
{"id":968,"nombre":"Beef - Kobe Striploin","precio":"$3.34","origen":"Portugal"},
{"id":969,"nombre":"Tuna - Bluefin","precio":"$4.59","origen":"Peru"},
{"id":970,"nombre":"Turkey - Breast, Smoked","precio":"$8.28","origen":"Portugal"},
{"id":971,"nombre":"Lid Coffee Cup 8oz Blk","precio":"$1.68","origen":"Peru"},
{"id":972,"nombre":"Cake - Dulce De Leche","precio":"$2.32","origen":"Portugal"},
{"id":973,"nombre":"Veal - Provimi Inside","precio":"$5.89","origen":"Argentina"},
{"id":974,"nombre":"Oil - Food, Lacquer Spray","precio":"$6.05","origen":"Argentina"},
{"id":975,"nombre":"Lobster - Tail 6 Oz","precio":"$4.31","origen":"Colombia"},
{"id":976,"nombre":"Lettuce - Red Leaf","precio":"$7.49","origen":"Peru"},
{"id":977,"nombre":"Flower - Commercial Spider","precio":"$9.51","origen":"Argentina"},
{"id":978,"nombre":"Kolrabi","precio":"$2.59","origen":"Colombia"},
{"id":979,"nombre":"Sauce - Bernaise, Mix","precio":"$4.02","origen":"Mexico"},
{"id":980,"nombre":"Tomatoes","precio":"$4.37","origen":"Argentina"},
{"id":981,"nombre":"Five Alive Citrus","precio":"$2.63","origen":"Portugal"},
{"id":982,"nombre":"Juice Peach Nectar","precio":"$3.58","origen":"Colombia"},
{"id":983,"nombre":"Marjoram - Dried, Rubbed","precio":"$4.03","origen":"Argentina"},
{"id":984,"nombre":"Tea - English Breakfast","precio":"$1.54","origen":"Mexico"},
{"id":985,"nombre":"Turkey - Breast, Double","precio":"$8.30","origen":"Argentina"},
{"id":986,"nombre":"Veal Inside - Provimi","precio":"$4.84","origen":"Peru"},
{"id":987,"nombre":"Pimento - Canned","precio":"$2.35","origen":"Argentina"},
{"id":988,"nombre":"Scallops - In Shell","precio":"$6.67","origen":"Peru"},
{"id":989,"nombre":"Cheese - Grie Des Champ","precio":"$3.08","origen":"Portugal"},
{"id":990,"nombre":"Coconut Milk - Unsweetened","precio":"$4.30","origen":"Portugal"},
{"id":991,"nombre":"Stock - Veal, Brown","precio":"$8.05","origen":"Portugal"},
{"id":992,"nombre":"Marjoram - Dried, Rubbed","precio":"$7.70","origen":"Argentina"},
{"id":993,"nombre":"Fond - Neutral","precio":"$8.45","origen":"Colombia"},
{"id":994,"nombre":"Juice - Lagoon Mango","precio":"$4.49","origen":"Portugal"},
{"id":995,"nombre":"Chinese Foods - Thick Noodles","precio":"$8.06","origen":"Mexico"},
{"id":996,"nombre":"Mushroom - Shitake, Fresh","precio":"$8.16","origen":"Argentina"},
{"id":997,"nombre":"Juice - Mango","precio":"$8.27","origen":"Argentina"},
{"id":998,"nombre":"Squid - U - 10 Thailand","precio":"$1.20","origen":"Peru"},
{"id":999,"nombre":"Flour - Strong Pizza","precio":"$3.62","origen":"Uruguay"},
{"id":1000,"nombre":"Muffin Mix - Lemon Cranberry","precio":"$3.50","origen":"Colombia"}]